# Blender v2.81 (sub 16) OBJ File: 'Arrow.blend'
# www.blender.org
mtllib Arrow.mtl
o Arrow
v 0.000000 0.051049 0.946436
v 0.009959 0.050068 0.946436
v 0.019536 0.047163 0.946436
v 0.028361 0.042446 0.946436
v 0.036097 0.036097 0.946436
v 0.042446 0.028361 0.946436
v 0.047163 0.019536 0.946436
v 0.050068 0.009959 0.946436
v 0.051049 -0.000000 0.946436
v 0.050068 -0.009959 0.946436
v 0.047163 -0.019536 0.946436
v 0.042446 -0.028361 0.946436
v 0.036097 -0.036097 0.946436
v 0.028361 -0.042446 0.946436
v 0.019536 -0.047163 0.946436
v 0.009959 -0.050068 0.946436
v -0.000000 -0.051049 0.946436
v -0.009959 -0.050068 0.946436
v -0.019536 -0.047163 0.946436
v -0.028361 -0.042446 0.946436
v -0.036097 -0.036097 0.946436
v -0.042446 -0.028361 0.946436
v -0.047163 -0.019536 0.946436
v -0.050068 -0.009959 0.946436
v -0.051049 0.000000 0.946436
v -0.050068 0.009959 0.946436
v -0.047163 0.019536 0.946436
v -0.042446 0.028361 0.946436
v -0.036097 0.036097 0.946436
v -0.028361 0.042446 0.946436
v -0.019535 0.047163 0.946436
v -0.009959 0.050068 0.946436
v 0.000000 0.050636 -0.971916
v 0.009879 0.049663 -0.971916
v 0.019378 0.046782 -0.971916
v 0.028132 0.042102 -0.971916
v 0.035805 0.035805 -0.971916
v 0.042102 0.028132 -0.971916
v 0.046782 0.019378 -0.971916
v 0.049663 0.009879 -0.971916
v 0.050636 0.000000 -0.971916
v 0.049663 -0.009879 -0.971916
v 0.046782 -0.019378 -0.971916
v 0.042102 -0.028132 -0.971916
v 0.035805 -0.035805 -0.971916
v 0.028132 -0.042102 -0.971916
v 0.019378 -0.046782 -0.971916
v 0.009879 -0.049663 -0.971916
v -0.000000 -0.050636 -0.971916
v -0.009879 -0.049663 -0.971916
v -0.019378 -0.046782 -0.971916
v -0.028132 -0.042102 -0.971916
v -0.035805 -0.035805 -0.971916
v -0.042102 -0.028132 -0.971916
v -0.046782 -0.019378 -0.971916
v -0.049663 -0.009879 -0.971916
v -0.050636 0.000000 -0.971916
v -0.049663 0.009879 -0.971916
v -0.046782 0.019378 -0.971916
v -0.042102 0.028132 -0.971916
v -0.035805 0.035805 -0.971916
v -0.028132 0.042102 -0.971916
v -0.019377 0.046782 -0.971916
v -0.009879 0.049663 -0.971916
v 0.009654 0.048532 -0.974144
v 0.009215 0.046326 -0.977567
v 0.008732 0.043897 -0.980738
v 0.008298 0.041717 -0.983411
v 0.007967 0.040055 -0.985481
v 0.018936 0.045716 -0.974144
v 0.018076 0.043638 -0.977567
v 0.017128 0.041350 -0.980738
v 0.016277 0.039296 -0.983411
v 0.015629 0.037731 -0.985481
v 0.027491 0.041143 -0.974144
v 0.026242 0.039273 -0.977567
v 0.024865 0.037214 -0.980738
v 0.023631 0.035366 -0.983411
v 0.022689 0.033957 -0.985481
v 0.034989 0.034989 -0.974145
v 0.033399 0.033399 -0.977567
v 0.031648 0.031648 -0.980738
v 0.030076 0.030076 -0.983411
v 0.028878 0.028878 -0.985481
v 0.041143 0.027491 -0.974145
v 0.039273 0.026242 -0.977567
v 0.037214 0.024865 -0.980738
v 0.035366 0.023631 -0.983411
v 0.033957 0.022689 -0.985481
v 0.045716 0.018936 -0.974145
v 0.043638 0.018076 -0.977567
v 0.041350 0.017128 -0.980738
v 0.039296 0.016277 -0.983411
v 0.037731 0.015629 -0.985481
v 0.048532 0.009654 -0.974145
v 0.046326 0.009215 -0.977567
v 0.043897 0.008732 -0.980738
v 0.041716 0.008298 -0.983411
v 0.040055 0.007967 -0.985481
v 0.049482 0.000000 -0.974145
v 0.047234 0.000000 -0.977567
v 0.044756 0.000000 -0.980738
v 0.042534 0.000000 -0.983411
v 0.040839 0.000000 -0.985481
v 0.048532 -0.009654 -0.974145
v 0.046326 -0.009215 -0.977567
v 0.043897 -0.008732 -0.980738
v 0.041716 -0.008298 -0.983411
v 0.040055 -0.007967 -0.985481
v 0.045716 -0.018936 -0.974145
v 0.043638 -0.018076 -0.977567
v 0.041350 -0.017128 -0.980738
v 0.039296 -0.016277 -0.983411
v 0.037731 -0.015629 -0.985481
v 0.041143 -0.027491 -0.974145
v 0.039273 -0.026242 -0.977567
v 0.037214 -0.024865 -0.980738
v 0.035366 -0.023630 -0.983411
v 0.033957 -0.022689 -0.985481
v 0.034989 -0.034989 -0.974145
v 0.033399 -0.033399 -0.977567
v 0.031648 -0.031648 -0.980738
v 0.030076 -0.030076 -0.983411
v 0.028878 -0.028878 -0.985481
v 0.027491 -0.041143 -0.974145
v 0.026242 -0.039273 -0.977567
v 0.024865 -0.037214 -0.980738
v 0.023630 -0.035365 -0.983411
v 0.022689 -0.033957 -0.985481
v 0.018936 -0.045716 -0.974145
v 0.018076 -0.043638 -0.977567
v 0.017128 -0.041350 -0.980738
v 0.016277 -0.039296 -0.983411
v 0.015629 -0.037731 -0.985481
v 0.009654 -0.048532 -0.974145
v 0.009215 -0.046326 -0.977567
v 0.008732 -0.043896 -0.980738
v 0.008298 -0.041716 -0.983411
v 0.007967 -0.040055 -0.985481
v -0.000000 -0.049482 -0.974145
v -0.000000 -0.047234 -0.977567
v -0.000000 -0.044756 -0.980738
v -0.000000 -0.042534 -0.983411
v -0.000000 -0.040839 -0.985481
v -0.009654 -0.048532 -0.974145
v -0.009215 -0.046326 -0.977567
v -0.008732 -0.043896 -0.980738
v -0.008298 -0.041716 -0.983411
v -0.007967 -0.040055 -0.985481
v -0.018936 -0.045716 -0.974145
v -0.018076 -0.043638 -0.977567
v -0.017128 -0.041350 -0.980738
v -0.016277 -0.039296 -0.983411
v -0.015629 -0.037731 -0.985481
v -0.027491 -0.041143 -0.974145
v -0.026242 -0.039273 -0.977567
v -0.024865 -0.037214 -0.980738
v -0.023630 -0.035365 -0.983411
v -0.022689 -0.033957 -0.985481
v -0.034989 -0.034989 -0.974145
v -0.033399 -0.033399 -0.977567
v -0.031648 -0.031648 -0.980738
v -0.030076 -0.030076 -0.983411
v -0.028878 -0.028878 -0.985481
v -0.041143 -0.027491 -0.974145
v -0.039273 -0.026242 -0.977567
v -0.037214 -0.024865 -0.980738
v -0.035366 -0.023630 -0.983411
v -0.033957 -0.022689 -0.985481
v -0.045716 -0.018936 -0.974145
v -0.043638 -0.018076 -0.977567
v -0.041350 -0.017128 -0.980738
v -0.039296 -0.016277 -0.983411
v -0.037731 -0.015628 -0.985481
v -0.048532 -0.009653 -0.974145
v -0.046326 -0.009215 -0.977567
v -0.043897 -0.008732 -0.980738
v -0.041716 -0.008298 -0.983411
v -0.040055 -0.007967 -0.985481
v -0.049482 0.000000 -0.974145
v -0.047234 0.000000 -0.977567
v -0.044756 0.000000 -0.980738
v -0.042534 0.000000 -0.983411
v -0.040839 0.000000 -0.985481
v -0.048532 0.009654 -0.974145
v -0.046326 0.009215 -0.977567
v -0.043896 0.008732 -0.980738
v -0.041716 0.008298 -0.983411
v -0.040055 0.007967 -0.985481
v -0.045716 0.018936 -0.974145
v -0.043638 0.018076 -0.977567
v -0.041350 0.017128 -0.980738
v -0.039296 0.016277 -0.983411
v -0.037731 0.015629 -0.985481
v -0.041143 0.027491 -0.974145
v -0.039273 0.026242 -0.977567
v -0.037214 0.024865 -0.980738
v -0.035366 0.023631 -0.983411
v -0.033957 0.022689 -0.985481
v -0.034989 0.034989 -0.974145
v -0.033399 0.033399 -0.977567
v -0.031648 0.031648 -0.980738
v -0.030076 0.030076 -0.983411
v -0.028878 0.028878 -0.985481
v -0.027491 0.041143 -0.974145
v -0.026242 0.039273 -0.977567
v -0.024865 0.037214 -0.980738
v -0.023630 0.035366 -0.983411
v -0.022689 0.033957 -0.985481
v -0.018936 0.045716 -0.974144
v -0.018076 0.043638 -0.977567
v -0.017128 0.041350 -0.980738
v -0.016277 0.039296 -0.983411
v -0.015628 0.037731 -0.985481
v -0.009653 0.048532 -0.974144
v -0.009215 0.046326 -0.977567
v -0.008732 0.043897 -0.980738
v -0.008298 0.041717 -0.983411
v -0.007967 0.040055 -0.985481
v 0.000000 0.049482 -0.974144
v 0.000000 0.040839 -0.985481
v 0.000000 0.042534 -0.983411
v 0.000000 0.044757 -0.980738
v 0.000000 0.047234 -0.977567
v -0.000000 0.013270 -0.998453
v -0.000000 0.018170 -0.996906
v -0.000000 0.023070 -0.995359
v -0.000000 0.027880 -0.993792
v -0.000000 0.031623 -0.992091
v 0.000000 0.034409 -0.990446
v 0.006713 0.033748 -0.990446
v 0.006169 0.031015 -0.992091
v 0.005439 0.027344 -0.993792
v 0.004501 0.022627 -0.995359
v 0.003545 0.017821 -0.996906
v 0.002589 0.013015 -0.998453
v 0.013168 0.031790 -0.990446
v 0.012102 0.029216 -0.992091
v 0.010669 0.025758 -0.993792
v 0.008829 0.021314 -0.995359
v 0.006953 0.016787 -0.996906
v 0.005078 0.012260 -0.998453
v 0.019116 0.028610 -0.990446
v 0.017569 0.026294 -0.992091
v 0.015489 0.023181 -0.993792
v 0.012817 0.019182 -0.995359
v 0.010095 0.015108 -0.996906
v 0.007373 0.011034 -0.998453
v 0.024331 0.024331 -0.990446
v 0.022361 0.022361 -0.992091
v 0.019714 0.019714 -0.993792
v 0.016313 0.016313 -0.995359
v 0.012848 0.012848 -0.996906
v 0.009384 0.009384 -0.998453
v 0.028610 0.019116 -0.990446
v 0.026294 0.017569 -0.992091
v 0.023181 0.015489 -0.993792
v 0.019182 0.012817 -0.995359
v 0.015108 0.010095 -0.996906
v 0.011034 0.007373 -0.998453
v 0.031789 0.013168 -0.990446
v 0.029216 0.012102 -0.992091
v 0.025758 0.010669 -0.993792
v 0.021314 0.008829 -0.995359
v 0.016787 0.006953 -0.996906
v 0.012260 0.005078 -0.998453
v 0.033748 0.006713 -0.990446
v 0.031015 0.006169 -0.992091
v 0.027344 0.005439 -0.993792
v 0.022627 0.004501 -0.995359
v 0.017821 0.003545 -0.996906
v 0.013015 0.002589 -0.998453
v 0.034409 0.000000 -0.990446
v 0.031623 0.000000 -0.992091
v 0.027880 0.000000 -0.993792
v 0.023070 0.000000 -0.995359
v 0.018170 0.000000 -0.996906
v 0.013270 0.000000 -0.998453
v 0.033748 -0.006713 -0.990446
v 0.031015 -0.006169 -0.992091
v 0.027344 -0.005439 -0.993792
v 0.022627 -0.004501 -0.995359
v 0.017821 -0.003545 -0.996906
v 0.013015 -0.002589 -0.998453
v 0.031789 -0.013168 -0.990446
v 0.029216 -0.012102 -0.992091
v 0.025758 -0.010669 -0.993792
v 0.021314 -0.008828 -0.995359
v 0.016787 -0.006953 -0.996906
v 0.012260 -0.005078 -0.998453
v 0.028610 -0.019116 -0.990446
v 0.026294 -0.017569 -0.992091
v 0.023181 -0.015489 -0.993792
v 0.019182 -0.012817 -0.995359
v 0.015108 -0.010095 -0.996906
v 0.011034 -0.007373 -0.998453
v 0.024331 -0.024331 -0.990446
v 0.022361 -0.022361 -0.992091
v 0.019714 -0.019714 -0.993792
v 0.016313 -0.016313 -0.995359
v 0.012848 -0.012848 -0.996906
v 0.009384 -0.009384 -0.998453
v 0.019116 -0.028610 -0.990446
v 0.017569 -0.026294 -0.992091
v 0.015489 -0.023181 -0.993792
v 0.012817 -0.019182 -0.995359
v 0.010095 -0.015108 -0.996906
v 0.007373 -0.011034 -0.998453
v 0.013168 -0.031789 -0.990446
v 0.012102 -0.029216 -0.992091
v 0.010669 -0.025758 -0.993792
v 0.008829 -0.021314 -0.995359
v 0.006953 -0.016787 -0.996906
v 0.005078 -0.012260 -0.998453
v 0.006713 -0.033747 -0.990446
v 0.006169 -0.031015 -0.992091
v 0.005439 -0.027344 -0.993792
v 0.004501 -0.022627 -0.995359
v 0.003545 -0.017821 -0.996906
v 0.002589 -0.013015 -0.998453
v -0.000000 -0.034409 -0.990446
v -0.000000 -0.031623 -0.992091
v -0.000000 -0.027880 -0.993792
v -0.000000 -0.023070 -0.995359
v -0.000000 -0.018170 -0.996906
v 0.000000 -0.013270 -0.998453
v -0.006713 -0.033747 -0.990446
v -0.006169 -0.031015 -0.992091
v -0.005439 -0.027344 -0.993792
v -0.004501 -0.022627 -0.995359
v -0.003545 -0.017821 -0.996906
v -0.002589 -0.013015 -0.998453
v -0.013168 -0.031789 -0.990446
v -0.012102 -0.029216 -0.992091
v -0.010669 -0.025758 -0.993792
v -0.008829 -0.021314 -0.995359
v -0.006953 -0.016787 -0.996906
v -0.005078 -0.012260 -0.998453
v -0.019116 -0.028610 -0.990446
v -0.017569 -0.026294 -0.992091
v -0.015489 -0.023181 -0.993792
v -0.012817 -0.019182 -0.995359
v -0.010095 -0.015108 -0.996906
v -0.007373 -0.011034 -0.998453
v -0.024331 -0.024331 -0.990446
v -0.022361 -0.022361 -0.992091
v -0.019714 -0.019714 -0.993792
v -0.016313 -0.016313 -0.995359
v -0.012848 -0.012848 -0.996906
v -0.009384 -0.009384 -0.998453
v -0.028610 -0.019116 -0.990446
v -0.026294 -0.017569 -0.992091
v -0.023181 -0.015489 -0.993792
v -0.019182 -0.012817 -0.995359
v -0.015108 -0.010095 -0.996906
v -0.011034 -0.007373 -0.998453
v -0.031789 -0.013168 -0.990446
v -0.029216 -0.012102 -0.992091
v -0.025758 -0.010669 -0.993792
v -0.021314 -0.008828 -0.995359
v -0.016787 -0.006953 -0.996906
v -0.012260 -0.005078 -0.998453
v -0.033748 -0.006713 -0.990446
v -0.031015 -0.006169 -0.992091
v -0.027344 -0.005439 -0.993792
v -0.022627 -0.004501 -0.995359
v -0.017821 -0.003545 -0.996906
v -0.013015 -0.002589 -0.998453
v -0.034409 0.000000 -0.990446
v -0.031623 0.000000 -0.992091
v -0.027880 0.000000 -0.993792
v -0.023070 0.000000 -0.995359
v -0.018170 0.000000 -0.996906
v -0.013270 0.000000 -0.998453
v -0.033748 0.006713 -0.990446
v -0.031015 0.006169 -0.992091
v -0.027344 0.005439 -0.993792
v -0.022627 0.004501 -0.995359
v -0.017821 0.003545 -0.996906
v -0.013015 0.002589 -0.998453
v -0.031789 0.013168 -0.990446
v -0.029216 0.012102 -0.992091
v -0.025758 0.010669 -0.993792
v -0.021314 0.008829 -0.995359
v -0.016787 0.006953 -0.996906
v -0.012260 0.005078 -0.998453
v -0.028610 0.019117 -0.990446
v -0.026294 0.017569 -0.992091
v -0.023181 0.015489 -0.993792
v -0.019182 0.012817 -0.995359
v -0.015108 0.010095 -0.996906
v -0.011034 0.007373 -0.998453
v -0.024331 0.024331 -0.990446
v -0.022361 0.022361 -0.992091
v -0.019714 0.019714 -0.993792
v -0.016313 0.016313 -0.995359
v -0.012848 0.012848 -0.996906
v -0.009384 0.009384 -0.998453
v -0.019116 0.028610 -0.990446
v -0.017569 0.026294 -0.992091
v -0.015489 0.023181 -0.993792
v -0.012817 0.019182 -0.995359
v -0.010095 0.015108 -0.996906
v -0.007373 0.011034 -0.998453
v -0.013168 0.031790 -0.990446
v -0.012102 0.029216 -0.992091
v -0.010669 0.025758 -0.993792
v -0.008828 0.021314 -0.995359
v -0.006953 0.016787 -0.996906
v -0.005078 0.012260 -0.998453
v -0.006713 0.033748 -0.990446
v -0.006169 0.031016 -0.992091
v -0.005439 0.027344 -0.993792
v -0.004501 0.022627 -0.995359
v -0.003545 0.017821 -0.996906
v -0.002589 0.013015 -0.998453
v 0.000000 -0.000000 1.346547
v -0.000000 0.132570 0.946447
v 0.000000 0.143095 0.968770
v -0.000000 0.138021 0.947539
v -0.000000 0.142111 0.950710
v -0.000000 0.144440 0.955648
v -0.000000 0.144779 0.961871
v 0.025863 0.130023 0.946447
v 0.027916 0.140345 0.968770
v 0.026927 0.135369 0.947539
v 0.027725 0.139381 0.950710
v 0.028179 0.141664 0.955648
v 0.028245 0.141997 0.961871
v 0.050732 0.122479 0.946447
v 0.054760 0.132202 0.968770
v 0.052818 0.127515 0.947539
v 0.054384 0.131294 0.950710
v 0.055275 0.133445 0.955648
v 0.055404 0.133758 0.961871
v 0.079499 0.118979 0.968770
v 0.073652 0.110228 0.946447
v 0.080435 0.120379 0.961871
v 0.080246 0.120097 0.955648
v 0.078953 0.118161 0.950710
v 0.076680 0.114760 0.947539
v 0.101183 0.101183 0.968770
v 0.093741 0.093741 0.946447
v 0.102374 0.102374 0.961871
v 0.102134 0.102134 0.955648
v 0.100488 0.100488 0.950710
v 0.097596 0.097596 0.947539
v 0.118979 0.079499 0.968770
v 0.110228 0.073652 0.946447
v 0.120379 0.080435 0.961871
v 0.120097 0.080246 0.955648
v 0.118161 0.078953 0.950710
v 0.114760 0.076680 0.947539
v 0.132202 0.054760 0.968770
v 0.122479 0.050732 0.946447
v 0.133758 0.055404 0.961871
v 0.133445 0.055275 0.955648
v 0.131294 0.054384 0.950710
v 0.127515 0.052818 0.947539
v 0.140345 0.027916 0.968770
v 0.130022 0.025863 0.946447
v 0.141997 0.028245 0.961871
v 0.141664 0.028179 0.955648
v 0.139381 0.027725 0.950710
v 0.135369 0.026927 0.947539
v 0.143095 0.000000 0.968770
v 0.132570 0.000000 0.946447
v 0.144779 0.000000 0.961871
v 0.144440 0.000000 0.955648
v 0.142111 0.000000 0.950710
v 0.138021 0.000000 0.947539
v 0.140345 -0.027916 0.968770
v 0.130022 -0.025863 0.946447
v 0.141997 -0.028245 0.961871
v 0.141664 -0.028179 0.955648
v 0.139381 -0.027725 0.950710
v 0.135369 -0.026927 0.947539
v 0.132202 -0.054760 0.968770
v 0.122479 -0.050732 0.946447
v 0.133758 -0.055404 0.961871
v 0.133445 -0.055275 0.955648
v 0.131294 -0.054384 0.950710
v 0.127515 -0.052818 0.947539
v 0.118979 -0.079499 0.968770
v 0.110228 -0.073652 0.946447
v 0.120379 -0.080435 0.961871
v 0.120097 -0.080246 0.955648
v 0.118161 -0.078953 0.950710
v 0.114760 -0.076680 0.947539
v 0.101183 -0.101183 0.968770
v 0.093741 -0.093741 0.946447
v 0.102374 -0.102374 0.961871
v 0.102134 -0.102134 0.955648
v 0.100488 -0.100488 0.950710
v 0.097596 -0.097596 0.947539
v 0.079499 -0.118979 0.968770
v 0.073652 -0.110228 0.946447
v 0.080435 -0.120379 0.961871
v 0.080246 -0.120097 0.955648
v 0.078953 -0.118161 0.950710
v 0.076680 -0.114760 0.947539
v 0.054760 -0.132202 0.968770
v 0.050732 -0.122479 0.946447
v 0.055404 -0.133758 0.961871
v 0.055275 -0.133445 0.955648
v 0.054384 -0.131294 0.950710
v 0.052818 -0.127515 0.947539
v 0.027916 -0.140345 0.968770
v 0.025863 -0.130022 0.946447
v 0.028245 -0.141997 0.961871
v 0.028179 -0.141664 0.955648
v 0.027725 -0.139381 0.950710
v 0.026927 -0.135369 0.947539
v -0.000000 -0.143095 0.968770
v -0.000000 -0.132570 0.946447
v -0.000000 -0.144779 0.961871
v -0.000000 -0.144440 0.955648
v -0.000000 -0.142111 0.950710
v -0.000000 -0.138021 0.947539
v -0.025863 -0.130022 0.946447
v -0.027916 -0.140345 0.968770
v -0.026927 -0.135369 0.947539
v -0.027725 -0.139381 0.950710
v -0.028179 -0.141664 0.955648
v -0.028245 -0.141997 0.961871
v -0.050732 -0.122478 0.946447
v -0.054760 -0.132202 0.968770
v -0.052818 -0.127515 0.947539
v -0.054384 -0.131294 0.950710
v -0.055275 -0.133445 0.955648
v -0.055404 -0.133758 0.961871
v -0.073652 -0.110228 0.946447
v -0.079499 -0.118979 0.968770
v -0.076681 -0.114760 0.947539
v -0.078953 -0.118161 0.950710
v -0.080247 -0.120097 0.955648
v -0.080435 -0.120379 0.961871
v -0.093741 -0.093741 0.946447
v -0.101183 -0.101183 0.968770
v -0.097596 -0.097596 0.947539
v -0.100488 -0.100488 0.950710
v -0.102134 -0.102134 0.955648
v -0.102374 -0.102374 0.961871
v -0.110228 -0.073652 0.946447
v -0.118979 -0.079499 0.968770
v -0.114760 -0.076680 0.947539
v -0.118161 -0.078953 0.950710
v -0.120097 -0.080246 0.955648
v -0.120379 -0.080435 0.961871
v -0.122479 -0.050732 0.946447
v -0.132202 -0.054760 0.968770
v -0.127515 -0.052818 0.947539
v -0.131294 -0.054384 0.950710
v -0.133445 -0.055275 0.955648
v -0.133758 -0.055404 0.961871
v -0.130023 -0.025863 0.946447
v -0.140345 -0.027916 0.968770
v -0.135369 -0.026926 0.947539
v -0.139381 -0.027724 0.950710
v -0.141664 -0.028179 0.955648
v -0.141997 -0.028245 0.961871
v -0.132570 0.000000 0.946447
v -0.143095 0.000000 0.968770
v -0.138021 0.000000 0.947539
v -0.142111 0.000000 0.950710
v -0.144440 0.000000 0.955648
v -0.144779 0.000000 0.961871
v -0.130022 0.025863 0.946447
v -0.140345 0.027917 0.968770
v -0.135369 0.026927 0.947539
v -0.139381 0.027725 0.950710
v -0.141664 0.028179 0.955648
v -0.141997 0.028245 0.961871
v -0.122478 0.050732 0.946447
v -0.132202 0.054760 0.968770
v -0.127515 0.052819 0.947539
v -0.131294 0.054384 0.950710
v -0.133445 0.055275 0.955648
v -0.133758 0.055405 0.961871
v -0.110228 0.073652 0.946447
v -0.118979 0.079499 0.968770
v -0.114760 0.076681 0.947539
v -0.118161 0.078953 0.950710
v -0.120097 0.080247 0.955648
v -0.120379 0.080435 0.961871
v -0.093741 0.093741 0.946447
v -0.101183 0.101183 0.968770
v -0.097596 0.097596 0.947539
v -0.100488 0.100488 0.950710
v -0.102134 0.102134 0.955648
v -0.102374 0.102374 0.961871
v -0.073652 0.110228 0.946447
v -0.079499 0.118979 0.968770
v -0.076680 0.114761 0.947539
v -0.078953 0.118161 0.950710
v -0.080246 0.120097 0.955648
v -0.080435 0.120379 0.961871
v -0.050732 0.122479 0.946447
v -0.054760 0.132202 0.968770
v -0.052818 0.127515 0.947539
v -0.054383 0.131294 0.950710
v -0.055275 0.133445 0.955648
v -0.055404 0.133758 0.961871
v -0.025863 0.130023 0.946447
v -0.027916 0.140345 0.968770
v -0.026926 0.135369 0.947539
v -0.027724 0.139381 0.950710
v -0.028179 0.141664 0.955648
v -0.028245 0.141997 0.961871
vt 1.000000 0.750000
vt 0.968750 1.000000
vt 0.968750 0.750000
vt 0.937500 0.750000
vt 0.937500 1.000000
vt 0.906250 0.750000
vt 0.906250 1.000000
vt 0.875000 0.750000
vt 0.875000 1.000000
vt 0.843750 0.750000
vt 0.812500 1.000000
vt 0.812500 0.750000
vt 0.781250 0.750000
vt 0.750000 1.000000
vt 0.750000 0.750000
vt 0.718750 1.000000
vt 0.718750 0.750000
vt 0.687500 0.750000
vt 0.687500 1.000000
vt 0.656250 0.750000
vt 0.625000 1.000000
vt 0.625000 0.750000
vt 0.593750 0.750000
vt 0.593750 1.000000
vt 0.562500 0.750000
vt 0.562500 1.000000
vt 0.531250 0.750000
vt 0.531250 1.000000
vt 0.500000 0.750000
vt 0.500000 1.000000
vt 0.468750 0.750000
vt 0.468750 1.000000
vt 0.437500 0.750000
vt 0.437500 1.000000
vt 0.406250 0.750000
vt 0.406250 1.000000
vt 0.375000 0.750000
vt 0.375000 1.000000
vt 0.343750 0.750000
vt 0.343750 1.000000
vt 0.312500 0.750000
vt 0.312500 1.000000
vt 0.281250 0.750000
vt 0.281250 1.000000
vt 0.250000 0.750000
vt 0.250000 1.000000
vt 0.218750 0.750000
vt 0.187500 1.000000
vt 0.187500 0.750000
vt 0.156250 0.750000
vt 0.156250 1.000000
vt 0.125000 0.750000
vt 0.125000 1.000000
vt 0.093750 0.750000
vt 0.093750 1.000000
vt 0.062500 0.750000
vt 0.062500 1.000000
vt 0.031250 0.750000
vt 0.031250 1.000000
vt 0.000000 0.750000
vt 0.968750 0.619240
vt 1.000000 0.568548
vt 1.000000 0.619239
vt 0.968750 0.731784
vt 1.000000 0.731784
vt 0.937500 0.731784
vt 0.906250 0.731784
vt 0.875000 0.731784
vt 0.843750 0.731784
vt 0.812500 0.731783
vt 0.781250 0.731783
vt 0.750000 0.731783
vt 0.718750 0.731783
vt 0.687500 0.731783
vt 0.656250 0.731783
vt 0.625000 0.731783
vt 0.593750 0.731783
vt 0.562500 0.731783
vt 0.531250 0.731783
vt 0.500000 0.731783
vt 0.468750 0.731783
vt 0.437500 0.731783
vt 0.406250 0.731783
vt 0.375000 0.731783
vt 0.343750 0.731783
vt 0.312500 0.731783
vt 0.281250 0.731783
vt 0.250000 0.731783
vt 0.218750 0.731784
vt 0.187500 0.731783
vt 0.156250 0.731784
vt 0.125000 0.731784
vt 0.093750 0.731784
vt 0.062500 0.731784
vt 0.031250 0.731784
vt 0.000000 0.731784
vt 1.000000 0.700572
vt 0.968750 0.700572
vt 0.999995 0.664345
vt 0.968750 0.664345
vt 0.999994 0.625000
vt 0.968750 0.625000
vt 0.937500 0.700572
vt 0.937500 0.664345
vt 0.937500 0.619239
vt 0.906250 0.700572
vt 0.906250 0.664345
vt 0.906250 0.625000
vt 0.937500 0.625000
vt 0.906250 0.619239
vt 0.875000 0.700572
vt 0.875000 0.664345
vt 0.875000 0.625000
vt 0.843750 0.700572
vt 0.843750 0.664345
vt 0.843750 0.625000
vt 0.875000 0.619239
vt 0.812500 0.664345
vt 0.812500 0.625000
vt 0.812500 0.619239
vt 0.843750 0.619240
vt 0.781250 0.700572
vt 0.812500 0.700572
vt 0.781250 0.664345
vt 0.781250 0.625000
vt 0.781250 0.619240
vt 0.750000 0.700572
vt 0.750000 0.664345
vt 0.750000 0.625000
vt 0.750000 0.619239
vt 0.718750 0.700572
vt 0.718750 0.664345
vt 0.718750 0.625000
vt 0.718750 0.619239
vt 0.687500 0.700572
vt 0.687500 0.664345
vt 0.687500 0.625000
vt 0.656250 0.700572
vt 0.656250 0.664344
vt 0.656250 0.625000
vt 0.656250 0.619239
vt 0.687500 0.619240
vt 0.625000 0.700571
vt 0.625000 0.664345
vt 0.625000 0.625000
vt 0.625000 0.619240
vt 0.593750 0.700571
vt 0.593750 0.664344
vt 0.593750 0.625000
vt 0.593750 0.619240
vt 0.562500 0.700571
vt 0.562500 0.664344
vt 0.562500 0.625000
vt 0.562500 0.619240
vt 0.531250 0.700571
vt 0.531250 0.664344
vt 0.531250 0.625000
vt 0.531250 0.619240
vt 0.500000 0.700571
vt 0.500000 0.664344
vt 0.500000 0.625000
vt 0.468750 0.700571
vt 0.468750 0.664344
vt 0.468750 0.625000
vt 0.468750 0.619240
vt 0.500000 0.619240
vt 0.437500 0.700571
vt 0.437500 0.664344
vt 0.437500 0.625000
vt 0.406250 0.700571
vt 0.406250 0.664344
vt 0.406250 0.625000
vt 0.437500 0.619240
vt 0.375000 0.700571
vt 0.375000 0.664344
vt 0.375000 0.619240
vt 0.406250 0.619240
vt 0.343750 0.700571
vt 0.343750 0.664345
vt 0.375000 0.625000
vt 0.343750 0.625000
vt 0.312500 0.700572
vt 0.312500 0.664345
vt 0.312500 0.625000
vt 0.343750 0.619240
vt 0.281250 0.700572
vt 0.281250 0.664345
vt 0.281250 0.625000
vt 0.312500 0.619240
vt 0.250000 0.700572
vt 0.250000 0.664344
vt 0.250000 0.625000
vt 0.281250 0.619240
vt 0.218750 0.700572
vt 0.218750 0.664345
vt 0.218750 0.625000
vt 0.250000 0.619240
vt 0.187500 0.700572
vt 0.187500 0.664344
vt 0.187500 0.625000
vt 0.218750 0.619239
vt 0.156250 0.700572
vt 0.156250 0.664345
vt 0.156250 0.625000
vt 0.187500 0.619239
vt 0.125000 0.700572
vt 0.125000 0.664345
vt 0.125000 0.625000
vt 0.156250 0.619240
vt 0.093750 0.700572
vt 0.093750 0.664344
vt 0.093750 0.625000
vt 0.125000 0.619239
vt 0.062500 0.700572
vt 0.062500 0.664345
vt 0.062500 0.625000
vt 0.093750 0.619239
vt 0.031250 0.700572
vt 0.031250 0.664345
vt 0.031250 0.625000
vt 0.031250 0.619239
vt 0.062500 0.619240
vt 0.000005 0.664345
vt 0.000006 0.625000
vt 0.937500 0.568549
vt 0.968750 0.568548
vt 1.000000 0.541139
vt 0.968750 0.541139
vt 0.999996 0.513730
vt 0.968754 0.513730
vt 0.998498 0.500000
vt 0.792320 0.462754
vt 0.750000 0.420850
vt 0.750000 0.466922
vt 0.783331 0.417567
vt 0.750000 0.374778
vt 0.906250 0.568548
vt 0.937500 0.541139
vt 0.937504 0.513730
vt 0.968746 0.513730
vt 0.967247 0.500000
vt 0.833012 0.450409
vt 0.815382 0.407845
vt 0.774343 0.372381
vt 0.906254 0.513730
vt 0.935997 0.500000
vt 0.844919 0.392056
vt 0.819323 0.353749
vt 0.797750 0.365280
vt 0.843750 0.568549
vt 0.875000 0.568548
vt 0.906250 0.541139
vt 0.875004 0.513730
vt 0.906246 0.513730
vt 0.876502 0.500000
vt 0.904747 0.500000
vt 0.870516 0.430364
vt 0.870809 0.370809
vt 0.812500 0.568548
vt 0.843750 0.541139
vt 0.875000 0.541139
vt 0.843754 0.513730
vt 0.845252 0.500000
vt 0.873497 0.500000
vt 0.930364 0.370515
vt 0.903387 0.403387
vt 0.853749 0.319323
vt 0.838232 0.338231
vt 0.781250 0.568548
vt 0.812500 0.541139
vt 0.843746 0.513730
vt 0.812504 0.513730
vt 0.842247 0.500000
vt 0.950410 0.333012
vt 0.892057 0.344919
vt 0.907845 0.315382
vt 0.750000 0.568548
vt 0.781250 0.541139
vt 0.781254 0.513730
vt 0.782752 0.500000
vt 0.810997 0.500000
vt 0.917567 0.283331
vt 0.872381 0.274343
vt 0.865280 0.297751
vt 0.718750 0.568548
vt 0.750000 0.541139
vt 0.781246 0.513730
vt 0.750004 0.513730
vt 0.779747 0.500000
vt 0.966922 0.250000
vt 0.962754 0.292319
vt 0.920850 0.250000
vt 0.687500 0.568548
vt 0.718750 0.541139
vt 0.718754 0.513730
vt 0.720252 0.500000
vt 0.748497 0.500000
vt 0.917567 0.216669
vt 0.872381 0.225657
vt 0.874778 0.250000
vt 0.656250 0.568548
vt 0.687500 0.541139
vt 0.687504 0.513730
vt 0.718746 0.513730
vt 0.717247 0.500000
vt 0.962754 0.207680
vt 0.907845 0.184619
vt 0.865280 0.202249
vt 0.625000 0.568548
vt 0.656250 0.541139
vt 0.656254 0.513730
vt 0.657752 0.500000
vt 0.685997 0.500000
vt 0.950410 0.166988
vt 0.892057 0.155081
vt 0.853749 0.180677
vt 0.593750 0.568548
vt 0.625000 0.541139
vt 0.625004 0.513730
vt 0.656246 0.513730
vt 0.654747 0.500000
vt 0.903387 0.096613
vt 0.930364 0.129485
vt 0.870809 0.129191
vt 0.593750 0.541139
vt 0.593754 0.513730
vt 0.595252 0.500000
vt 0.623497 0.500000
vt 0.844919 0.107944
vt 0.819323 0.146251
vt 0.838231 0.161769
vt 0.531250 0.568548
vt 0.562500 0.541139
vt 0.562504 0.513730
vt 0.593746 0.513730
vt 0.564002 0.500000
vt 0.592247 0.500000
vt 0.870515 0.069636
vt 0.815381 0.092155
vt 0.797750 0.134720
vt 0.500000 0.568548
vt 0.562500 0.568548
vt 0.531250 0.541139
vt 0.531254 0.513730
vt 0.560997 0.500000
vt 0.792319 0.037246
vt 0.833012 0.049590
vt 0.783331 0.082433
vt 0.468750 0.568548
vt 0.500004 0.513730
vt 0.531246 0.513730
vt 0.501503 0.500000
vt 0.529747 0.500000
vt 0.750000 0.079150
vt 0.774343 0.127619
vt 0.500000 0.541139
vt 0.468754 0.513730
vt 0.470252 0.500000
vt 0.498498 0.500000
vt 0.707680 0.037246
vt 0.750000 0.033078
vt 0.725657 0.127619
vt 0.750000 0.125222
vt 0.437500 0.568548
vt 0.468750 0.541139
vt 0.437500 0.541139
vt 0.468746 0.513730
vt 0.437504 0.513730
vt 0.467247 0.500000
vt 0.666988 0.049590
vt 0.716669 0.082433
vt 0.684618 0.092155
vt 0.406250 0.568548
vt 0.406250 0.541139
vt 0.406254 0.513730
vt 0.435998 0.500000
vt 0.629485 0.069636
vt 0.655081 0.107944
vt 0.702250 0.134720
vt 0.375000 0.568548
vt 0.375000 0.541139
vt 0.406250 0.541139
vt 0.406246 0.513730
vt 0.375004 0.513730
vt 0.404748 0.500000
vt 0.596613 0.096613
vt 0.629191 0.129191
vt 0.680677 0.146251
vt 0.343750 0.568548
vt 0.343750 0.541139
vt 0.343754 0.513730
vt 0.373498 0.500000
vt 0.569636 0.129485
vt 0.607944 0.155081
vt 0.661768 0.161768
vt 0.312500 0.568548
vt 0.312500 0.541139
vt 0.343746 0.513730
vt 0.312504 0.513730
vt 0.342248 0.500000
vt 0.592155 0.184619
vt 0.646251 0.180677
vt 0.281250 0.568548
vt 0.281250 0.541139
vt 0.281254 0.513730
vt 0.310998 0.500000
vt 0.537246 0.207681
vt 0.549590 0.166988
vt 0.582433 0.216669
vt 0.634720 0.202250
vt 0.250000 0.568548
vt 0.281250 0.541139
vt 0.250000 0.541139
vt 0.281246 0.513730
vt 0.250004 0.513730
vt 0.279748 0.500000
vt 0.579150 0.250000
vt 0.627619 0.225657
vt 0.218750 0.568548
vt 0.218750 0.541139
vt 0.218754 0.513730
vt 0.248498 0.500000
vt 0.537246 0.292319
vt 0.533078 0.250000
vt 0.582433 0.283331
vt 0.625222 0.250000
vt 0.156250 0.568548
vt 0.187500 0.568548
vt 0.187500 0.541139
vt 0.218746 0.513730
vt 0.187504 0.513730
vt 0.217248 0.500000
vt 0.549591 0.333012
vt 0.592155 0.315382
vt 0.627620 0.274343
vt 0.156250 0.541139
vt 0.157753 0.500000
vt 0.185998 0.500000
vt 0.569636 0.370515
vt 0.607944 0.344919
vt 0.634720 0.297751
vt 0.125000 0.568548
vt 0.125000 0.541139
vt 0.156246 0.513730
vt 0.125004 0.513730
vt 0.154748 0.500000
vt 0.596613 0.403387
vt 0.629191 0.370809
vt 0.646251 0.319323
vt 0.093750 0.568548
vt 0.093750 0.541139
vt 0.093754 0.513730
vt 0.123498 0.500000
vt 0.629485 0.430364
vt 0.655081 0.392057
vt 0.661769 0.338232
vt 0.031250 0.568548
vt 0.062500 0.541139
vt 0.062504 0.513730
vt 0.093746 0.513730
vt 0.064003 0.500000
vt 0.092248 0.500000
vt 0.684619 0.407845
vt 0.702249 0.365280
vt 0.680677 0.353749
vt 0.000000 0.619240
vt 0.062500 0.568548
vt 0.031250 0.541139
vt 0.032753 0.500000
vt 0.060998 0.500000
vt 0.707681 0.462754
vt 0.666988 0.450410
vt 0.716669 0.417567
vt 0.000000 0.568549
vt 0.000000 0.541139
vt 0.031246 0.513730
vt 0.000004 0.513730
vt 0.029748 0.500000
vt 0.725657 0.372381
vt 0.205791 0.472255
vt 0.250000 0.250000
vt 0.250000 0.476610
vt 0.336720 0.459360
vt 0.375897 0.438419
vt 0.410237 0.410237
vt 0.438419 0.375897
vt 0.459360 0.336720
vt 0.472255 0.294209
vt 0.476610 0.250000
vt 0.472255 0.205791
vt 0.459360 0.163280
vt 0.438419 0.124103
vt 0.410237 0.089763
vt 0.375897 0.061581
vt 0.336720 0.040640
vt 0.294209 0.027745
vt 0.250000 0.023390
vt 0.205791 0.027745
vt 0.163280 0.040640
vt 0.124102 0.061581
vt 0.089763 0.089763
vt 0.061581 0.124103
vt 0.040640 0.163280
vt 0.027745 0.205791
vt 0.023390 0.250000
vt 0.027745 0.294210
vt 0.040640 0.336720
vt 0.061581 0.375898
vt 0.089763 0.410237
vt 0.124103 0.438419
vt 0.163281 0.459360
vt 0.294209 0.472255
vt 0.250115 0.480444
vt 0.294845 0.476039
vt 0.250449 0.483297
vt 0.295364 0.485532
vt 0.251458 0.489856
vt 0.750000 0.475052
vt 0.792642 0.464375
vt 0.750000 0.468575
vt 0.790958 0.455908
vt 0.750000 0.459942
vt 0.295070 0.475994
vt 0.338081 0.462947
vt 0.295954 0.478726
vt 0.338864 0.465710
vt 0.298224 0.484963
vt 0.836124 0.457921
vt 0.793906 0.470728
vt 0.833645 0.451937
vt 0.338293 0.462859
vt 0.377932 0.441671
vt 0.339693 0.465366
vt 0.379240 0.444229
vt 0.343136 0.471040
vt 0.875032 0.437124
vt 0.871434 0.431738
vt 0.830341 0.443961
vt 0.378123 0.441543
vt 0.412867 0.413030
vt 0.379986 0.443730
vt 0.414648 0.415283
vt 0.384469 0.448623
vt 0.909136 0.409136
vt 0.898451 0.398451
vt 0.866637 0.424560
vt 0.413030 0.412867
vt 0.443730 0.379986
vt 0.415283 0.414648
vt 0.420635 0.418573
vt 0.931738 0.371434
vt 0.904556 0.404556
vt 0.924560 0.366638
vt 0.462859 0.338293
vt 0.441671 0.377932
vt 0.444229 0.379240
vt 0.471040 0.343136
vt 0.450243 0.382045
vt 0.937124 0.375032
vt 0.951937 0.333645
vt 0.943961 0.330341
vt 0.475994 0.295070
vt 0.462947 0.338081
vt 0.465710 0.338864
vt 0.484963 0.298224
vt 0.472156 0.340442
vt 0.970728 0.293906
vt 0.957921 0.336124
vt 0.964375 0.292642
vt 0.476039 0.294845
vt 0.480444 0.250115
vt 0.478902 0.295074
vt 0.483297 0.250449
vt 0.485532 0.295364
vt 0.975052 0.250000
vt 0.968575 0.250000
vt 0.955908 0.290958
vt 0.480444 0.249885
vt 0.476039 0.205155
vt 0.483297 0.249551
vt 0.485532 0.204636
vt 0.489856 0.248542
vt 0.970728 0.206095
vt 0.955908 0.209042
vt 0.959942 0.250000
vt 0.475994 0.204930
vt 0.462947 0.161919
vt 0.478727 0.204046
vt 0.472156 0.159558
vt 0.484963 0.201776
vt 0.957921 0.163876
vt 0.964375 0.207358
vt 0.951937 0.166355
vt 0.462859 0.161707
vt 0.441671 0.122068
vt 0.465366 0.160307
vt 0.444229 0.120760
vt 0.471040 0.156864
vt 0.937124 0.124968
vt 0.931739 0.128566
vt 0.943961 0.169659
vt 0.441543 0.121876
vt 0.415283 0.085352
vt 0.443730 0.120014
vt 0.448623 0.115531
vt 0.909136 0.090864
vt 0.904556 0.095444
vt 0.924560 0.133362
vt 0.378124 0.058457
vt 0.412867 0.086970
vt 0.414648 0.084717
vt 0.379986 0.056270
vt 0.418573 0.079365
vt 0.871434 0.068261
vt 0.898451 0.101549
vt 0.338293 0.037141
vt 0.377932 0.058329
vt 0.379240 0.055771
vt 0.343136 0.028960
vt 0.382045 0.049757
vt 0.875032 0.062876
vt 0.833645 0.048063
vt 0.830341 0.056039
vt 0.866638 0.075440
vt 0.295070 0.024006
vt 0.338081 0.037053
vt 0.338864 0.034290
vt 0.298224 0.015037
vt 0.340442 0.027844
vt 0.793905 0.029272
vt 0.836124 0.042079
vt 0.792642 0.035625
vt 0.294845 0.023961
vt 0.250115 0.019556
vt 0.295074 0.021098
vt 0.250449 0.016703
vt 0.295364 0.014468
vt 0.750000 0.031425
vt 0.750000 0.040058
vt 0.790958 0.044092
vt 0.249885 0.019556
vt 0.205155 0.023961
vt 0.249551 0.016703
vt 0.204926 0.021098
vt 0.248542 0.010144
vt 0.706095 0.029272
vt 0.750000 0.024948
vt 0.707358 0.035625
vt 0.204930 0.024006
vt 0.161919 0.037053
vt 0.204046 0.021274
vt 0.161136 0.034290
vt 0.201776 0.015037
vt 0.663876 0.042079
vt 0.666355 0.048063
vt 0.709042 0.044092
vt 0.161706 0.037141
vt 0.122068 0.058329
vt 0.160306 0.034634
vt 0.117955 0.049757
vt 0.156864 0.028960
vt 0.624968 0.062876
vt 0.633362 0.075440
vt 0.669659 0.056039
vt 0.087133 0.086970
vt 0.121876 0.058457
vt 0.085352 0.084717
vt 0.120014 0.056270
vt 0.115530 0.051377
vt 0.590864 0.090864
vt 0.628566 0.068262
vt 0.601548 0.101549
vt 0.058457 0.121877
vt 0.086970 0.087133
vt 0.056270 0.120014
vt 0.084717 0.085352
vt 0.079365 0.081427
vt 0.568261 0.128566
vt 0.595444 0.095444
vt 0.575440 0.133363
vt 0.058329 0.122068
vt 0.034634 0.160307
vt 0.055771 0.120761
vt 0.049757 0.117955
vt 0.562876 0.124968
vt 0.548063 0.166355
vt 0.556039 0.169659
vt 0.037053 0.161919
vt 0.024006 0.204930
vt 0.034290 0.161136
vt 0.015037 0.201776
vt 0.027844 0.159558
vt 0.529272 0.206095
vt 0.542079 0.163876
vt 0.535625 0.207358
vt 0.023961 0.205156
vt 0.019556 0.249885
vt 0.021098 0.204926
vt 0.010144 0.248542
vt 0.014468 0.204637
vt 0.531425 0.250000
vt 0.540058 0.250000
vt 0.544092 0.209043
vt 0.019556 0.250115
vt 0.021098 0.295074
vt 0.016703 0.250449
vt 0.014468 0.295364
vt 0.010144 0.251458
vt 0.529272 0.293906
vt 0.524948 0.250000
vt 0.535625 0.292642
vt 0.024006 0.295070
vt 0.037053 0.338081
vt 0.021274 0.295954
vt 0.034290 0.338864
vt 0.015037 0.298224
vt 0.548063 0.333645
vt 0.544092 0.290958
vt 0.037142 0.338294
vt 0.058329 0.377932
vt 0.034634 0.339694
vt 0.055772 0.379240
vt 0.028960 0.343136
vt 0.562876 0.375033
vt 0.542079 0.336124
vt 0.568262 0.371434
vt 0.556039 0.330342
vt 0.086970 0.412867
vt 0.058457 0.378124
vt 0.056270 0.379986
vt 0.084717 0.414649
vt 0.051377 0.384470
vt 0.595444 0.404556
vt 0.601549 0.398452
vt 0.575440 0.366638
vt 0.121877 0.441544
vt 0.087133 0.413030
vt 0.085352 0.415283
vt 0.120014 0.443730
vt 0.081427 0.420635
vt 0.624968 0.437124
vt 0.590864 0.409136
vt 0.628566 0.431739
vt 0.122068 0.441671
vt 0.160307 0.465366
vt 0.120761 0.444229
vt 0.117956 0.450244
vt 0.663876 0.457921
vt 0.669659 0.443961
vt 0.633363 0.424561
vt 0.161919 0.462947
vt 0.204046 0.478727
vt 0.161136 0.465710
vt 0.159558 0.472157
vt 0.706095 0.470728
vt 0.666355 0.451937
vt 0.707358 0.464375
vt 0.205156 0.476039
vt 0.249885 0.480444
vt 0.204927 0.478902
vt 0.249551 0.483297
vt 0.204637 0.485532
vt 0.709043 0.455908
vt 0.000000 0.000000
vt 0.000000 0.000000
vt 0.000000 0.000000
vt 0.000000 0.000000
vt 0.000000 0.000000
vt 0.000000 0.000000
vt 0.000000 0.000000
vt 0.000000 0.000000
vt 0.000000 0.000000
vt 0.000000 0.000000
vt 0.000000 0.000000
vt 0.000000 0.000000
vt 0.000000 0.000000
vt 0.000000 0.000000
vt 0.000000 0.000000
vt 0.000000 0.000000
vt 0.000000 0.000000
vt 0.000000 0.000000
vt 0.000000 0.000000
vt 0.000000 0.000000
vt 0.000000 0.000000
vt 0.000000 0.000000
vt 0.000000 0.000000
vt 0.000000 0.000000
vt 0.000000 0.000000
vt 0.000000 0.000000
vt 0.000000 0.000000
vt 0.000000 0.000000
vt 0.000000 0.000000
vt 0.000000 0.000000
vt 0.000000 0.000000
vt 0.000000 0.000000
vt 0.000000 0.000000
vt 0.000000 0.000000
vt 0.000000 0.000000
vt 0.000000 0.000000
vt 0.000000 0.000000
vt 0.000000 0.000000
vt 0.000000 0.000000
vt 0.000000 0.000000
vt 0.000000 0.000000
vt 0.000000 0.000000
vt 0.000000 0.000000
vt 0.000000 0.000000
vt 0.000000 0.000000
vt 0.000000 0.000000
vt 0.000000 0.000000
vt 0.000000 0.000000
vt 0.000000 0.000000
vt 0.000000 0.000000
vt 0.000000 0.000000
vt 0.000000 0.000000
vt 0.000000 0.000000
vt 0.000000 0.000000
vt 0.000000 0.000000
vt 0.000000 0.000000
vt 0.000000 0.000000
vt 0.000000 0.000000
vt 0.000000 0.000000
vt 0.000000 0.000000
vt 0.000000 0.000000
vt 0.000000 0.000000
vt 0.000000 0.000000
vt 0.000000 0.000000
vt 1.000000 1.000000
vt 0.843750 1.000000
vt 0.781250 1.000000
vt 0.656250 1.000000
vt 0.218750 1.000000
vt 0.000000 1.000000
vt 0.000000 0.700572
vt 0.970252 0.500000
vt 0.939002 0.500000
vt 0.907752 0.500000
vt 0.814003 0.500000
vt 0.751502 0.500000
vt 0.689002 0.500000
vt 0.626502 0.500000
vt 0.532753 0.500000
vt 0.406250 0.568548
vt 0.439003 0.500000
vt 0.407753 0.500000
vt 0.376503 0.500000
vt 0.345253 0.500000
vt 0.314003 0.500000
vt 0.282753 0.500000
vt 0.251503 0.500000
vt 0.220253 0.500000
vt 0.189003 0.500000
vt 0.156254 0.513730
vt 0.126503 0.500000
vt 0.095253 0.500000
vt 0.031254 0.513730
vt 0.001503 0.500000
vt 0.295074 0.478902
vt 0.340442 0.472156
vt 0.382045 0.450243
vt 0.418573 0.420635
vt 0.441543 0.378124
vt 0.448623 0.384469
vt 0.465366 0.339693
vt 0.478726 0.295954
vt 0.489856 0.251458
vt 0.478902 0.204926
vt 0.465710 0.161136
vt 0.450243 0.117955
vt 0.413030 0.087133
vt 0.420635 0.081427
vt 0.384469 0.051377
vt 0.339693 0.034634
vt 0.295954 0.021274
vt 0.251458 0.010144
vt 0.204636 0.014468
vt 0.159558 0.027844
vt 0.120760 0.055772
vt 0.081427 0.079365
vt 0.051377 0.115531
vt 0.037141 0.161707
vt 0.028959 0.156864
vt 0.021273 0.204046
vt 0.016703 0.249551
vt 0.023961 0.294845
vt 0.027844 0.340442
vt 0.049757 0.382045
vt 0.079365 0.418573
vt 0.115531 0.448623
vt 0.161707 0.462859
vt 0.156864 0.471041
vt 0.204930 0.475994
vt 0.201777 0.484963
vt 0.248542 0.489856
vn 0.0000 0.9724 -0.2333
vn 0.1333 0.6704 -0.7299
vn 0.1897 0.9537 -0.2333
vn 0.3721 0.8983 -0.2333
vn 0.2616 0.6315 -0.7299
vn 0.5402 0.8085 -0.2334
vn 0.3798 0.5683 -0.7299
vn 0.6876 0.6876 -0.2333
vn 0.4834 0.4834 -0.7299
vn 0.8085 0.5402 -0.2334
vn 0.6315 0.2616 -0.7299
vn 0.8983 0.3721 -0.2333
vn 0.9537 0.1897 -0.2334
vn 0.6836 0.0000 -0.7299
vn 0.9724 0.0000 -0.2333
vn 0.6704 -0.1333 -0.7299
vn 0.9537 -0.1897 -0.2333
vn 0.8983 -0.3721 -0.2334
vn 0.6315 -0.2616 -0.7299
vn 0.8085 -0.5402 -0.2334
vn 0.4834 -0.4834 -0.7299
vn 0.6876 -0.6876 -0.2334
vn 0.5402 -0.8085 -0.2334
vn 0.3797 -0.5683 -0.7299
vn 0.3721 -0.8983 -0.2334
vn 0.2616 -0.6315 -0.7299
vn 0.1897 -0.9537 -0.2334
vn 0.1333 -0.6704 -0.7299
vn 0.0000 -0.9724 -0.2334
vn 0.0000 -0.6836 -0.7299
vn -0.1897 -0.9537 -0.2334
vn -0.1334 -0.6704 -0.7299
vn -0.3721 -0.8983 -0.2334
vn -0.2616 -0.6315 -0.7299
vn -0.5402 -0.8085 -0.2334
vn -0.3798 -0.5683 -0.7299
vn -0.6876 -0.6876 -0.2334
vn -0.4834 -0.4834 -0.7299
vn -0.8085 -0.5402 -0.2333
vn -0.5683 -0.3798 -0.7299
vn -0.8983 -0.3721 -0.2333
vn -0.6315 -0.2616 -0.7299
vn -0.9537 -0.1897 -0.2333
vn -0.6704 -0.1333 -0.7299
vn -0.9724 0.0000 -0.2334
vn -0.6836 0.0000 -0.7299
vn -0.9537 0.1897 -0.2334
vn -0.6315 0.2616 -0.7299
vn -0.8983 0.3721 -0.2333
vn -0.8085 0.5402 -0.2334
vn -0.5683 0.3798 -0.7299
vn -0.6876 0.6876 -0.2333
vn -0.4834 0.4834 -0.7299
vn -0.5402 0.8085 -0.2333
vn -0.3798 0.5683 -0.7299
vn -0.3721 0.8983 -0.2334
vn -0.2616 0.6315 -0.7299
vn -0.1897 0.9537 -0.2333
vn -0.1333 0.6704 -0.7299
vn 0.1367 0.6871 -0.7136
vn 0.0000 0.5635 -0.8261
vn 0.0000 0.7006 -0.7136
vn 0.1685 0.8473 -0.5037
vn 0.0000 0.8639 -0.5037
vn 0.3306 0.7981 -0.5037
vn 0.4799 0.7183 -0.5037
vn 0.6108 0.6109 -0.5037
vn 0.7183 0.4799 -0.5037
vn 0.7981 0.3306 -0.5037
vn 0.8473 0.1685 -0.5037
vn 0.8639 0.0000 -0.5037
vn 0.8473 -0.1685 -0.5037
vn 0.7981 -0.3306 -0.5037
vn 0.7183 -0.4799 -0.5037
vn 0.6109 -0.6108 -0.5037
vn 0.4799 -0.7183 -0.5037
vn 0.3306 -0.7981 -0.5037
vn 0.1685 -0.8473 -0.5037
vn 0.0000 -0.8639 -0.5037
vn -0.1685 -0.8473 -0.5037
vn -0.3306 -0.7981 -0.5037
vn -0.4799 -0.7183 -0.5037
vn -0.6108 -0.6109 -0.5037
vn -0.7183 -0.4799 -0.5037
vn -0.7981 -0.3306 -0.5037
vn -0.8473 -0.1685 -0.5037
vn -0.8639 0.0000 -0.5037
vn -0.8473 0.1685 -0.5037
vn -0.7981 0.3306 -0.5037
vn -0.7183 0.4799 -0.5037
vn -0.6108 0.6109 -0.5037
vn -0.4799 0.7183 -0.5037
vn -0.3306 0.7981 -0.5037
vn -0.1685 0.8473 -0.5037
vn 0.0000 0.8134 -0.5817
vn 0.1587 0.7978 -0.5817
vn 0.0000 0.7789 -0.6271
vn 0.1520 0.7639 -0.6271
vn 0.0000 0.7713 -0.6365
vn 0.1505 0.7564 -0.6365
vn 0.3113 0.7515 -0.5817
vn 0.2981 0.7196 -0.6271
vn 0.2681 0.6472 -0.7136
vn 0.4519 0.6763 -0.5817
vn 0.4327 0.6476 -0.6271
vn 0.4285 0.6413 -0.6365
vn 0.2951 0.7125 -0.6365
vn 0.3892 0.5825 -0.7136
vn 0.5752 0.5752 -0.5817
vn 0.5508 0.5508 -0.6271
vn 0.5454 0.5454 -0.6365
vn 0.6763 0.4519 -0.5817
vn 0.6476 0.4327 -0.6271
vn 0.6413 0.4285 -0.6365
vn 0.4954 0.4954 -0.7136
vn 0.7196 0.2981 -0.6271
vn 0.7125 0.2951 -0.6365
vn 0.6472 0.2681 -0.7136
vn 0.5825 0.3892 -0.7136
vn 0.7978 0.1587 -0.5817
vn 0.7515 0.3113 -0.5817
vn 0.7639 0.1520 -0.6271
vn 0.7564 0.1505 -0.6365
vn 0.6871 0.1367 -0.7136
vn 0.8134 0.0000 -0.5817
vn 0.7789 0.0000 -0.6271
vn 0.7713 0.0000 -0.6365
vn 0.7006 0.0000 -0.7136
vn 0.7978 -0.1587 -0.5817
vn 0.7639 -0.1520 -0.6271
vn 0.7564 -0.1505 -0.6365
vn 0.6871 -0.1367 -0.7136
vn 0.7515 -0.3113 -0.5817
vn 0.7196 -0.2980 -0.6271
vn 0.7125 -0.2951 -0.6365
vn 0.6763 -0.4519 -0.5817
vn 0.6476 -0.4327 -0.6271
vn 0.6413 -0.4285 -0.6365
vn 0.5825 -0.3892 -0.7136
vn 0.6472 -0.2681 -0.7136
vn 0.5752 -0.5752 -0.5817
vn 0.5508 -0.5508 -0.6271
vn 0.5454 -0.5454 -0.6365
vn 0.4954 -0.4954 -0.7136
vn 0.4519 -0.6763 -0.5817
vn 0.4327 -0.6476 -0.6271
vn 0.4285 -0.6413 -0.6365
vn 0.3892 -0.5825 -0.7136
vn 0.3113 -0.7515 -0.5817
vn 0.2981 -0.7196 -0.6271
vn 0.2951 -0.7125 -0.6365
vn 0.2681 -0.6472 -0.7136
vn 0.1587 -0.7978 -0.5817
vn 0.1520 -0.7639 -0.6271
vn 0.1505 -0.7564 -0.6365
vn 0.1367 -0.6871 -0.7136
vn 0.0000 -0.8134 -0.5817
vn 0.0000 -0.7789 -0.6271
vn 0.0000 -0.7713 -0.6365
vn -0.1587 -0.7978 -0.5817
vn -0.1520 -0.7639 -0.6271
vn -0.1505 -0.7564 -0.6365
vn -0.1367 -0.6871 -0.7136
vn 0.0000 -0.7006 -0.7136
vn -0.3113 -0.7515 -0.5817
vn -0.2980 -0.7196 -0.6271
vn -0.2951 -0.7125 -0.6365
vn -0.4519 -0.6763 -0.5817
vn -0.4327 -0.6476 -0.6271
vn -0.4285 -0.6413 -0.6365
vn -0.2681 -0.6472 -0.7136
vn -0.5752 -0.5752 -0.5817
vn -0.5508 -0.5508 -0.6271
vn -0.4954 -0.4954 -0.7136
vn -0.3892 -0.5825 -0.7136
vn -0.6763 -0.4519 -0.5817
vn -0.6476 -0.4327 -0.6271
vn -0.5454 -0.5454 -0.6365
vn -0.6413 -0.4285 -0.6365
vn -0.7515 -0.3113 -0.5817
vn -0.7196 -0.2981 -0.6271
vn -0.7125 -0.2951 -0.6365
vn -0.5825 -0.3892 -0.7136
vn -0.7978 -0.1587 -0.5817
vn -0.7639 -0.1520 -0.6271
vn -0.7564 -0.1505 -0.6365
vn -0.6472 -0.2681 -0.7136
vn -0.8134 0.0000 -0.5817
vn -0.7789 0.0000 -0.6271
vn -0.7713 0.0000 -0.6365
vn -0.6871 -0.1367 -0.7136
vn -0.7978 0.1587 -0.5817
vn -0.7639 0.1520 -0.6271
vn -0.7564 0.1505 -0.6365
vn -0.7006 0.0000 -0.7136
vn -0.7515 0.3113 -0.5817
vn -0.7196 0.2981 -0.6271
vn -0.7125 0.2951 -0.6365
vn -0.6871 0.1367 -0.7136
vn -0.6763 0.4519 -0.5817
vn -0.6476 0.4327 -0.6271
vn -0.6413 0.4285 -0.6365
vn -0.6472 0.2681 -0.7136
vn -0.5752 0.5752 -0.5817
vn -0.5508 0.5508 -0.6271
vn -0.5454 0.5454 -0.6365
vn -0.5825 0.3892 -0.7136
vn -0.4519 0.6763 -0.5817
vn -0.4327 0.6476 -0.6271
vn -0.4285 0.6413 -0.6365
vn -0.4953 0.4954 -0.7136
vn -0.3113 0.7515 -0.5817
vn -0.2981 0.7196 -0.6271
vn -0.2951 0.7125 -0.6365
vn -0.3892 0.5825 -0.7136
vn -0.1587 0.7978 -0.5817
vn -0.1520 0.7639 -0.6271
vn -0.1505 0.7564 -0.6365
vn -0.1367 0.6871 -0.7136
vn -0.2681 0.6472 -0.7136
vn 0.2156 0.5206 -0.8261
vn 0.1099 0.5527 -0.8261
vn 0.0000 0.4644 -0.8856
vn 0.0906 0.4555 -0.8856
vn 0.0000 0.3654 -0.9308
vn 0.0713 0.3583 -0.9308
vn 0.0000 0.3056 -0.9521
vn 0.0596 0.2998 -0.9521
vn 0.0000 0.3010 -0.9536
vn 0.0587 0.2953 -0.9536
vn 0.0000 0.1616 -0.9868
vn 0.3131 0.4685 -0.8261
vn 0.1777 0.4290 -0.8856
vn 0.1398 0.3376 -0.9308
vn 0.1169 0.2824 -0.9521
vn 0.1152 0.2781 -0.9536
vn 0.0315 0.1585 -0.9868
vn 0.2030 0.3038 -0.9308
vn 0.1672 0.2503 -0.9536
vn 0.0898 0.1343 -0.9868
vn 0.0618 0.1493 -0.9868
vn 0.4685 0.3130 -0.8261
vn 0.3984 0.3984 -0.8261
vn 0.2580 0.3861 -0.8856
vn 0.2584 0.2584 -0.9308
vn 0.2161 0.2161 -0.9521
vn 0.1698 0.2541 -0.9521
vn 0.2129 0.2129 -0.9536
vn 0.5206 0.2156 -0.8261
vn 0.3861 0.2580 -0.8856
vn 0.3283 0.3284 -0.8856
vn 0.3038 0.2030 -0.9308
vn 0.2541 0.1698 -0.9521
vn 0.1345 0.0898 -0.9868
vn 0.1142 0.1142 -0.9868
vn 0.5527 0.1099 -0.8261
vn 0.4290 0.1777 -0.8856
vn 0.3376 0.1398 -0.9308
vn 0.2824 0.1169 -0.9521
vn 0.2503 0.1672 -0.9536
vn 0.2781 0.1152 -0.9536
vn 0.5635 0.0000 -0.8261
vn 0.4555 0.0906 -0.8856
vn 0.3583 0.0713 -0.9308
vn 0.2998 0.0596 -0.9521
vn 0.2953 0.0587 -0.9536
vn 0.1583 0.0315 -0.9869
vn 0.1493 0.0618 -0.9868
vn 0.5527 -0.1099 -0.8261
vn 0.4644 0.0000 -0.8856
vn 0.3654 0.0000 -0.9308
vn 0.3056 0.0000 -0.9521
vn 0.3011 0.0000 -0.9536
vn 0.5206 -0.2156 -0.8261
vn 0.4555 -0.0906 -0.8856
vn 0.3583 -0.0713 -0.9308
vn 0.2998 -0.0596 -0.9521
vn 0.2953 -0.0587 -0.9536
vn 0.1583 -0.0315 -0.9869
vn 0.1616 0.0000 -0.9868
vn 0.4685 -0.3130 -0.8261
vn 0.4290 -0.1777 -0.8856
vn 0.3376 -0.1398 -0.9308
vn 0.2781 -0.1152 -0.9536
vn 0.1492 -0.0618 -0.9868
vn 0.3984 -0.3984 -0.8261
vn 0.3861 -0.2580 -0.8856
vn 0.3038 -0.2030 -0.9308
vn 0.2541 -0.1698 -0.9521
vn 0.2824 -0.1169 -0.9521
vn 0.2503 -0.1672 -0.9536
vn 0.1345 -0.0898 -0.9868
vn 0.3130 -0.4685 -0.8261
vn 0.3284 -0.3284 -0.8856
vn 0.2584 -0.2584 -0.9308
vn 0.2161 -0.2161 -0.9521
vn 0.2129 -0.2129 -0.9536
vn 0.2580 -0.3861 -0.8856
vn 0.2030 -0.3038 -0.9308
vn 0.1698 -0.2541 -0.9521
vn 0.1672 -0.2503 -0.9536
vn 0.0898 -0.1343 -0.9868
vn 0.1142 -0.1142 -0.9868
vn 0.1099 -0.5527 -0.8261
vn 0.1777 -0.4290 -0.8856
vn 0.1398 -0.3376 -0.9308
vn 0.1169 -0.2824 -0.9521
vn 0.1152 -0.2781 -0.9536
vn 0.0618 -0.1493 -0.9868
vn 0.0000 -0.5635 -0.8261
vn 0.2156 -0.5206 -0.8261
vn 0.0906 -0.4555 -0.8856
vn 0.0713 -0.3583 -0.9308
vn 0.0596 -0.2998 -0.9521
vn 0.0587 -0.2953 -0.9536
vn -0.1099 -0.5527 -0.8261
vn 0.0000 -0.3654 -0.9308
vn 0.0000 -0.3056 -0.9521
vn 0.0000 -0.3010 -0.9536
vn 0.0315 -0.1585 -0.9868
vn 0.0000 -0.4644 -0.8856
vn -0.0713 -0.3583 -0.9308
vn -0.0596 -0.2998 -0.9521
vn -0.0315 -0.1585 -0.9868
vn 0.0000 -0.1616 -0.9868
vn -0.2156 -0.5206 -0.8261
vn -0.0906 -0.4555 -0.8856
vn -0.1777 -0.4290 -0.8856
vn -0.1398 -0.3376 -0.9308
vn -0.1169 -0.2824 -0.9521
vn -0.0587 -0.2953 -0.9536
vn -0.1152 -0.2781 -0.9536
vn -0.3130 -0.4685 -0.8261
vn -0.2580 -0.3861 -0.8856
vn -0.2030 -0.3038 -0.9308
vn -0.1698 -0.2541 -0.9521
vn -0.1672 -0.2503 -0.9536
vn -0.0618 -0.1493 -0.9868
vn -0.3984 -0.3984 -0.8261
vn -0.3284 -0.3284 -0.8856
vn -0.2584 -0.2584 -0.9308
vn -0.2161 -0.2161 -0.9521
vn -0.2129 -0.2129 -0.9536
vn -0.0898 -0.1343 -0.9868
vn -0.4685 -0.3130 -0.8261
vn -0.3861 -0.2580 -0.8856
vn -0.3038 -0.2030 -0.9308
vn -0.2541 -0.1698 -0.9521
vn -0.2503 -0.1672 -0.9536
vn -0.1142 -0.1142 -0.9868
vn -0.5206 -0.2156 -0.8261
vn -0.4290 -0.1777 -0.8856
vn -0.3376 -0.1398 -0.9308
vn -0.2781 -0.1152 -0.9536
vn -0.1345 -0.0898 -0.9868
vn -0.5526 -0.1099 -0.8261
vn -0.4555 -0.0906 -0.8856
vn -0.3583 -0.0713 -0.9308
vn -0.2824 -0.1169 -0.9521
vn -0.2998 -0.0596 -0.9521
vn -0.2953 -0.0587 -0.9536
vn -0.1491 -0.0618 -0.9868
vn -0.5635 0.0000 -0.8261
vn -0.4644 0.0000 -0.8856
vn -0.3654 0.0000 -0.9308
vn -0.3011 0.0000 -0.9536
vn -0.1585 -0.0315 -0.9868
vn -0.5527 0.1099 -0.8261
vn -0.4555 0.0906 -0.8856
vn -0.3583 0.0713 -0.9308
vn -0.3056 0.0000 -0.9521
vn -0.2998 0.0596 -0.9521
vn -0.2953 0.0587 -0.9536
vn -0.1616 0.0000 -0.9868
vn -0.4685 0.3131 -0.8261
vn -0.5206 0.2156 -0.8261
vn -0.4290 0.1777 -0.8856
vn -0.3376 0.1398 -0.9308
vn -0.2824 0.1169 -0.9521
vn -0.2781 0.1152 -0.9536
vn -0.1585 0.0315 -0.9868
vn -0.3861 0.2580 -0.8856
vn -0.2541 0.1698 -0.9521
vn -0.2503 0.1672 -0.9536
vn -0.1492 0.0618 -0.9868
vn -0.3984 0.3984 -0.8261
vn -0.3284 0.3284 -0.8856
vn -0.3038 0.2030 -0.9308
vn -0.2584 0.2583 -0.9308
vn -0.2161 0.2161 -0.9521
vn -0.2129 0.2129 -0.9536
vn -0.1345 0.0898 -0.9868
vn -0.3130 0.4685 -0.8261
vn -0.2580 0.3861 -0.8856
vn -0.2030 0.3038 -0.9308
vn -0.1698 0.2541 -0.9521
vn -0.1672 0.2503 -0.9536
vn -0.1143 0.1142 -0.9868
vn -0.1099 0.5527 -0.8261
vn -0.1777 0.4290 -0.8856
vn -0.1398 0.3376 -0.9308
vn -0.1170 0.2824 -0.9521
vn -0.1152 0.2781 -0.9536
vn -0.0618 0.1493 -0.9868
vn -0.0897 0.1343 -0.9868
vn -0.2156 0.5206 -0.8261
vn -0.0906 0.4555 -0.8856
vn -0.0596 0.2998 -0.9521
vn -0.0587 0.2953 -0.9536
vn -0.0713 0.3583 -0.9308
vn -0.0315 0.1585 -0.9868
vn -0.1864 0.9371 0.2951
vn 0.0000 0.0000 1.0000
vn 0.0000 0.9554 0.2951
vn 0.3656 0.8827 0.2951
vn 0.5308 0.7944 0.2951
vn 0.6756 0.6756 0.2951
vn 0.7944 0.5308 0.2951
vn 0.8827 0.3656 0.2951
vn 0.9371 0.1864 0.2951
vn 0.9554 0.0000 0.2951
vn 0.9371 -0.1864 0.2951
vn 0.8827 -0.3656 0.2951
vn 0.7944 -0.5308 0.2951
vn 0.6756 -0.6756 0.2951
vn 0.5308 -0.7944 0.2951
vn 0.3656 -0.8827 0.2951
vn 0.1864 -0.9371 0.2951
vn 0.0000 -0.9554 0.2951
vn -0.1864 -0.9371 0.2951
vn -0.3656 -0.8827 0.2951
vn -0.5308 -0.7944 0.2951
vn -0.6756 -0.6756 0.2951
vn -0.7944 -0.5308 0.2951
vn -0.8827 -0.3656 0.2951
vn -0.9371 -0.1864 0.2951
vn -0.9554 0.0000 0.2951
vn -0.9371 0.1864 0.2951
vn -0.8827 0.3656 0.2951
vn -0.7944 0.5308 0.2951
vn -0.6756 0.6756 0.2951
vn -0.5308 0.7944 0.2951
vn -0.3656 0.8827 0.2951
vn 0.1864 0.9371 0.2951
vn 0.0000 0.9958 0.0916
vn 0.1943 0.9767 0.0916
vn 0.0000 0.9702 -0.2422
vn 0.1533 0.7706 -0.6186
vn 0.0000 0.7857 -0.6186
vn 0.0833 0.4191 -0.9041
vn 0.0000 0.4273 -0.9041
vn 0.0204 0.1029 -0.9945
vn 0.0000 0.1049 -0.9945
vn 0.3811 0.9200 0.0916
vn 0.1893 0.9516 -0.2422
vn 0.3713 0.8964 -0.2422
vn 0.3007 0.7259 -0.6186
vn 0.1635 0.3948 -0.9041
vn 0.5532 0.8280 0.0916
vn 0.5390 0.8067 -0.2422
vn 0.4365 0.6532 -0.6186
vn 0.2374 0.3553 -0.9041
vn 0.0401 0.0969 -0.9945
vn 0.7041 0.7041 0.0916
vn 0.6861 0.6861 -0.2422
vn 0.5555 0.5556 -0.6186
vn 0.0742 0.0742 -0.9945
vn 0.0583 0.0872 -0.9945
vn 0.8067 0.5390 -0.2422
vn 0.3553 0.2374 -0.9041
vn 0.3021 0.3021 -0.9041
vn 0.0872 0.0583 -0.9945
vn 0.9200 0.3811 0.0916
vn 0.8280 0.5532 0.0916
vn 0.7259 0.3006 -0.6186
vn 0.6532 0.4365 -0.6186
vn 0.3948 0.1635 -0.9041
vn 0.0969 0.0401 -0.9945
vn 0.9767 0.1943 0.0916
vn 0.8964 0.3713 -0.2422
vn 0.7706 0.1533 -0.6186
vn 0.4191 0.0833 -0.9041
vn 0.9958 0.0000 0.0916
vn 0.9516 0.1893 -0.2421
vn 0.9702 0.0000 -0.2422
vn 0.7857 0.0000 -0.6186
vn 0.4273 0.0000 -0.9041
vn 0.1029 0.0204 -0.9945
vn 0.9767 -0.1943 0.0916
vn 0.7706 -0.1533 -0.6186
vn 0.1029 -0.0204 -0.9945
vn 0.1049 0.0000 -0.9945
vn 0.9200 -0.3811 0.0916
vn 0.9516 -0.1893 -0.2422
vn 0.7259 -0.3006 -0.6186
vn 0.4191 -0.0833 -0.9041
vn 0.3948 -0.1635 -0.9041
vn 0.8280 -0.5532 0.0916
vn 0.8964 -0.3713 -0.2422
vn 0.8067 -0.5390 -0.2422
vn 0.6532 -0.4365 -0.6186
vn 0.3553 -0.2374 -0.9041
vn 0.0969 -0.0401 -0.9945
vn 0.6861 -0.6861 -0.2422
vn 0.5556 -0.5556 -0.6186
vn 0.3021 -0.3021 -0.9041
vn 0.0872 -0.0583 -0.9945
vn 0.5532 -0.8280 0.0916
vn 0.7041 -0.7041 0.0916
vn 0.5390 -0.8067 -0.2422
vn 0.2374 -0.3553 -0.9041
vn 0.0742 -0.0742 -0.9945
vn 0.3811 -0.9200 0.0916
vn 0.3007 -0.7259 -0.6186
vn 0.4365 -0.6532 -0.6186
vn 0.1635 -0.3948 -0.9041
vn 0.0401 -0.0969 -0.9945
vn 0.0583 -0.0872 -0.9945
vn 0.1943 -0.9767 0.0916
vn 0.3713 -0.8964 -0.2422
vn 0.1533 -0.7706 -0.6186
vn 0.0833 -0.4191 -0.9041
vn 0.0000 -0.9958 0.0915
vn 0.1893 -0.9516 -0.2422
vn 0.0000 -0.9702 -0.2422
vn 0.0000 -0.4273 -0.9041
vn 0.0000 -0.1049 -0.9945
vn 0.0204 -0.1029 -0.9945
vn -0.1943 -0.9767 0.0916
vn -0.1893 -0.9516 -0.2422
vn 0.0000 -0.7857 -0.6186
vn -0.1533 -0.7706 -0.6186
vn -0.0833 -0.4191 -0.9041
vn -0.3811 -0.9200 0.0916
vn -0.3713 -0.8964 -0.2422
vn -0.3006 -0.7259 -0.6186
vn -0.1635 -0.3948 -0.9041
vn -0.0204 -0.1029 -0.9945
vn -0.5532 -0.8280 0.0916
vn -0.4365 -0.6532 -0.6186
vn -0.0583 -0.0872 -0.9945
vn -0.0401 -0.0969 -0.9945
vn -0.7041 -0.7041 0.0916
vn -0.6861 -0.6861 -0.2422
vn -0.5390 -0.8067 -0.2422
vn -0.5556 -0.5556 -0.6186
vn -0.2374 -0.3553 -0.9041
vn -0.0742 -0.0742 -0.9945
vn -0.8280 -0.5532 0.0916
vn -0.8067 -0.5390 -0.2422
vn -0.3553 -0.2374 -0.9041
vn -0.3021 -0.3021 -0.9041
vn -0.0872 -0.0583 -0.9945
vn -0.8964 -0.3713 -0.2422
vn -0.6532 -0.4365 -0.6186
vn -0.3948 -0.1635 -0.9041
vn -0.0969 -0.0401 -0.9945
vn -0.9200 -0.3811 0.0916
vn -0.9767 -0.1943 0.0916
vn -0.7706 -0.1533 -0.6186
vn -0.7259 -0.3006 -0.6186
vn -0.4191 -0.0833 -0.9041
vn -0.9958 0.0000 0.0916
vn -0.9516 -0.1893 -0.2422
vn -0.7857 0.0000 -0.6186
vn -0.4273 0.0000 -0.9041
vn -0.1049 0.0000 -0.9945
vn -0.1028 -0.0204 -0.9945
vn -0.9516 0.1893 -0.2422
vn -0.9702 0.0000 -0.2422
vn -0.7706 0.1533 -0.6186
vn -0.4191 0.0833 -0.9041
vn -0.9767 0.1943 0.0916
vn -0.9200 0.3811 0.0916
vn -0.8964 0.3713 -0.2422
vn -0.3948 0.1635 -0.9041
vn -0.1029 0.0204 -0.9945
vn -0.8280 0.5532 0.0916
vn -0.8067 0.5390 -0.2422
vn -0.7259 0.3006 -0.6186
vn -0.6532 0.4365 -0.6186
vn -0.3553 0.2374 -0.9041
vn -0.0969 0.0401 -0.9945
vn -0.7041 0.7041 0.0916
vn -0.6860 0.6861 -0.2422
vn -0.3021 0.3021 -0.9041
vn -0.0742 0.0742 -0.9945
vn -0.0872 0.0583 -0.9945
vn -0.5532 0.8280 0.0916
vn -0.5390 0.8067 -0.2422
vn -0.5556 0.5556 -0.6186
vn -0.4365 0.6532 -0.6186
vn -0.2374 0.3553 -0.9041
vn -0.3713 0.8964 -0.2422
vn -0.3007 0.7259 -0.6186
vn -0.0401 0.0969 -0.9945
vn -0.0583 0.0872 -0.9945
vn -0.3811 0.9200 0.0916
vn -0.1893 0.9516 -0.2422
vn -0.1533 0.7706 -0.6186
vn -0.1635 0.3948 -0.9041
vn -0.0833 0.4191 -0.9041
vn -0.1943 0.9767 0.0916
vn -0.0204 0.1029 -0.9945
vn 0.0000 0.6836 -0.7299
vn 0.5683 0.3798 -0.7299
vn -0.6704 0.1333 -0.7299
vn 0.6704 0.1333 -0.7299
vn 0.5683 -0.3798 -0.7299
usemtl None
s 1
f 33/1/1 2/2/2 34/3/3
f 2/2/2 35/4/4 34/3/3
f 3/5/5 36/6/6 35/4/4
f 4/7/7 37/8/8 36/6/6
f 5/9/9 38/10/10 37/8/8
f 38/10/10 7/11/11 39/12/12
f 7/11/11 40/13/13 39/12/12
f 40/13/13 9/14/14 41/15/15
f 41/15/15 10/16/16 42/17/17
f 10/16/16 43/18/18 42/17/17
f 11/19/19 44/20/20 43/18/18
f 44/20/20 13/21/21 45/22/22
f 13/21/21 46/23/23 45/22/22
f 14/24/24 47/25/25 46/23/23
f 15/26/26 48/27/27 47/25/25
f 16/28/28 49/29/29 48/27/27
f 17/30/30 50/31/31 49/29/29
f 18/32/32 51/33/33 50/31/31
f 19/34/34 52/35/35 51/33/33
f 20/36/36 53/37/37 52/35/35
f 21/38/38 54/39/39 53/37/37
f 22/40/40 55/41/41 54/39/39
f 23/42/42 56/43/43 55/41/41
f 24/44/44 57/45/45 56/43/43
f 25/46/46 58/47/47 57/45/45
f 58/47/47 27/48/48 59/49/49
f 27/48/48 60/50/50 59/49/49
f 28/51/51 61/52/52 60/50/50
f 29/53/53 62/54/54 61/52/52
f 30/55/55 63/56/56 62/54/54
f 31/57/57 64/58/58 63/56/56
f 32/59/59 33/60/1 64/58/58
f 69/61/60 230/62/61 221/63/62
f 33/1/1 65/64/63 220/65/64
f 65/64/63 35/4/4 70/66/65
f 35/4/4 75/67/66 70/66/65
f 36/6/6 80/68/67 75/67/66
f 37/8/8 85/69/68 80/68/67
f 38/10/10 90/70/69 85/69/68
f 39/12/12 95/71/70 90/70/69
f 40/13/13 100/72/71 95/71/70
f 41/15/15 105/73/72 100/72/71
f 42/17/17 110/74/73 105/73/72
f 43/18/18 115/75/74 110/74/73
f 44/20/20 120/76/75 115/75/74
f 45/22/22 125/77/76 120/76/75
f 46/23/23 130/78/77 125/77/76
f 47/25/25 135/79/78 130/78/77
f 48/27/27 140/80/79 135/79/78
f 140/80/79 50/31/31 145/81/80
f 145/81/80 51/33/33 150/82/81
f 150/82/81 52/35/35 155/83/82
f 155/83/82 53/37/37 160/84/83
f 160/84/83 54/39/39 165/85/84
f 165/85/84 55/41/41 170/86/85
f 170/86/85 56/43/43 175/87/86
f 175/87/86 57/45/45 180/88/87
f 180/88/87 58/47/47 185/89/88
f 185/89/88 59/49/49 190/90/89
f 190/90/89 60/50/50 195/91/90
f 60/50/50 200/92/91 195/91/90
f 61/52/52 205/93/92 200/92/91
f 205/93/92 63/56/56 210/94/93
f 210/94/93 64/58/58 215/95/94
f 64/58/58 220/96/64 215/95/94
f 65/64/63 224/97/95 220/65/64
f 66/98/96 223/99/97 224/97/95
f 67/100/98 222/101/99 223/99/97
f 68/102/100 221/63/62 222/101/99
f 65/64/63 71/103/101 66/98/96
f 71/103/101 67/100/98 66/98/96
f 72/104/102 68/102/100 67/100/98
f 68/102/100 74/105/103 69/61/60
f 70/66/65 76/106/104 71/103/101
f 71/103/101 77/107/105 72/104/102
f 72/104/102 78/108/106 73/109/107
f 73/109/107 79/110/108 74/105/103
f 80/68/67 76/106/104 75/67/66
f 81/111/109 77/107/105 76/106/104
f 82/112/110 78/108/106 77/107/105
f 83/113/111 79/110/108 78/108/106
f 80/68/67 86/114/112 81/111/109
f 81/111/109 87/115/113 82/112/110
f 87/115/113 83/113/111 82/112/110
f 88/116/114 84/117/115 83/113/111
f 90/70/69 86/114/112 85/69/68
f 86/114/112 92/118/116 87/115/113
f 87/115/113 93/119/117 88/116/114
f 88/116/114 94/120/118 89/121/119
f 90/70/69 96/122/120 91/123/121
f 91/123/121 97/124/122 92/118/116
f 92/118/116 98/125/123 93/119/117
f 93/119/117 99/126/124 94/120/118
f 95/71/70 101/127/125 96/122/120
f 96/122/120 102/128/126 97/124/122
f 97/124/122 103/129/127 98/125/123
f 98/125/123 104/130/128 99/126/124
f 100/72/71 106/131/129 101/127/125
f 101/127/125 107/132/130 102/128/126
f 102/128/126 108/133/131 103/129/127
f 103/129/127 109/134/132 104/130/128
f 110/74/73 106/131/129 105/73/72
f 111/135/133 107/132/130 106/131/129
f 112/136/134 108/133/131 107/132/130
f 113/137/135 109/134/132 108/133/131
f 110/74/73 116/138/136 111/135/133
f 111/135/133 117/139/137 112/136/134
f 112/136/134 118/140/138 113/137/135
f 113/137/135 119/141/139 114/142/140
f 115/75/74 121/143/141 116/138/136
f 116/138/136 122/144/142 117/139/137
f 117/139/137 123/145/143 118/140/138
f 118/140/138 124/146/144 119/141/139
f 120/76/75 126/147/145 121/143/141
f 121/143/141 127/148/146 122/144/142
f 122/144/142 128/149/147 123/145/143
f 123/145/143 129/150/148 124/146/144
f 125/77/76 131/151/149 126/147/145
f 126/147/145 132/152/150 127/148/146
f 127/148/146 133/153/151 128/149/147
f 128/149/147 134/154/152 129/150/148
f 130/78/77 136/155/153 131/151/149
f 131/151/149 137/156/154 132/152/150
f 132/152/150 138/157/155 133/153/151
f 133/153/151 139/158/156 134/154/152
f 140/80/79 136/155/153 135/79/78
f 141/159/157 137/156/154 136/155/153
f 142/160/158 138/157/155 137/156/154
f 143/161/159 139/158/156 138/157/155
f 140/80/79 146/162/160 141/159/157
f 141/159/157 147/163/161 142/160/158
f 142/160/158 148/164/162 143/161/159
f 143/161/159 149/165/163 144/166/164
f 150/82/81 146/162/160 145/81/80
f 151/167/165 147/163/161 146/162/160
f 152/168/166 148/164/162 147/163/161
f 153/169/167 149/165/163 148/164/162
f 155/83/82 151/167/165 150/82/81
f 156/170/168 152/168/166 151/167/165
f 157/171/169 153/169/167 152/168/166
f 158/172/170 154/173/171 153/169/167
f 160/84/83 156/170/168 155/83/82
f 161/174/172 157/171/169 156/170/168
f 162/175/173 158/172/170 157/171/169
f 158/172/170 164/176/174 159/177/175
f 165/85/84 161/174/172 160/84/83
f 166/178/176 162/175/173 161/174/172
f 167/179/177 163/180/178 162/175/173
f 168/181/179 164/176/174 163/180/178
f 170/86/85 166/178/176 165/85/84
f 171/182/180 167/179/177 166/178/176
f 172/183/181 168/181/179 167/179/177
f 173/184/182 169/185/183 168/181/179
f 170/86/85 176/186/184 171/182/180
f 171/182/180 177/187/185 172/183/181
f 177/187/185 173/184/182 172/183/181
f 178/188/186 174/189/187 173/184/182
f 180/88/87 176/186/184 175/87/86
f 181/190/188 177/187/185 176/186/184
f 182/191/189 178/188/186 177/187/185
f 183/192/190 179/193/191 178/188/186
f 185/89/88 181/190/188 180/88/87
f 186/194/192 182/191/189 181/190/188
f 187/195/193 183/192/190 182/191/189
f 188/196/194 184/197/195 183/192/190
f 190/90/89 186/194/192 185/89/88
f 191/198/196 187/195/193 186/194/192
f 192/199/197 188/196/194 187/195/193
f 193/200/198 189/201/199 188/196/194
f 195/91/90 191/198/196 190/90/89
f 196/202/200 192/199/197 191/198/196
f 197/203/201 193/200/198 192/199/197
f 198/204/202 194/205/203 193/200/198
f 200/92/91 196/202/200 195/91/90
f 201/206/204 197/203/201 196/202/200
f 202/207/205 198/204/202 197/203/201
f 203/208/206 199/209/207 198/204/202
f 205/93/92 201/206/204 200/92/91
f 206/210/208 202/207/205 201/206/204
f 207/211/209 203/208/206 202/207/205
f 208/212/210 204/213/211 203/208/206
f 210/94/93 206/210/208 205/93/92
f 211/214/212 207/211/209 206/210/208
f 212/215/213 208/212/210 207/211/209
f 213/216/214 209/217/215 208/212/210
f 210/94/93 216/218/216 211/214/212
f 211/214/212 217/219/217 212/215/213
f 212/215/213 218/220/218 213/216/214
f 213/216/214 219/221/219 214/222/220
f 220/96/64 216/218/216 215/95/94
f 216/218/216 223/223/97 217/219/217
f 217/219/217 222/224/99 218/220/218
f 222/224/99 219/221/219 218/220/218
f 237/225/221 69/61/60 74/105/103
f 231/226/222 229/227/223 230/62/61
f 232/228/224 228/229/225 229/227/223
f 233/230/226 227/231/227 228/229/225
f 234/232/228 226/233/229 227/234/227
f 235/235/230 225/236/231 226/233/229
f 243/237/232 74/105/103 79/110/108
f 231/226/222 238/238/233 232/228/224
f 232/228/224 239/239/234 233/240/226
f 239/239/234 234/241/228 233/240/226
f 240/242/235 235/235/230 234/232/228
f 241/243/236 236/244/237 235/235/230
f 84/117/115 243/237/232 79/110/108
f 243/237/232 238/238/233 237/225/221
f 238/238/233 245/245/238 239/239/234
f 245/245/238 240/246/235 239/239/234
f 240/242/235 247/247/239 241/243/236
f 241/243/236 248/248/240 242/249/241
f 255/250/242 84/117/115 89/121/119
f 249/251/243 244/252/244 243/237/232
f 244/252/244 251/253/245 245/254/238
f 245/254/238 252/255/246 246/256/247
f 246/257/247 253/258/248 247/247/239
f 253/258/248 248/248/240 247/247/239
f 261/259/249 89/121/119 94/120/118
f 249/251/243 256/260/250 250/261/251
f 250/261/251 257/262/252 251/253/245
f 251/253/245 258/263/253 252/264/246
f 258/265/253 253/258/248 252/266/246
f 253/258/248 260/267/254 254/268/255
f 267/269/256 94/120/118 99/126/124
f 255/250/242 262/270/257 256/260/250
f 262/270/257 257/271/252 256/260/250
f 263/272/258 258/273/253 257/271/252
f 264/274/259 259/275/260 258/265/253
f 265/276/261 260/267/254 259/275/260
f 273/277/262 99/126/124 104/130/128
f 261/259/249 268/278/263 262/270/257
f 262/270/257 269/279/264 263/272/258
f 263/272/258 270/280/265 264/281/259
f 264/274/259 271/282/266 265/276/261
f 265/276/261 272/283/267 266/284/268
f 279/285/269 104/130/128 109/134/132
f 267/269/256 274/286/270 268/278/263
f 274/286/270 269/287/264 268/278/263
f 275/288/271 270/289/265 269/287/264
f 276/290/272 271/282/266 270/291/265
f 277/292/273 272/283/267 271/282/266
f 285/293/274 109/134/132 114/142/140
f 273/277/262 280/294/275 274/286/270
f 274/286/270 281/295/276 275/288/271
f 275/288/271 282/296/277 276/297/272
f 276/290/272 283/298/278 277/292/273
f 277/292/273 284/299/279 278/300/280
f 291/301/281 114/142/140 119/141/139
f 279/285/269 286/302/282 280/294/275
f 280/294/275 287/303/283 281/304/276
f 287/303/283 282/305/277 281/304/276
f 282/306/277 289/307/284 283/298/278
f 283/298/278 290/308/285 284/299/279
f 297/309/286 119/141/139 124/146/144
f 285/293/274 292/310/287 286/302/282
f 286/302/282 293/311/288 287/303/283
f 287/303/283 294/312/289 288/313/290
f 288/314/290 295/315/291 289/307/284
f 289/307/284 296/316/292 290/308/285
f 303/317/293 124/146/144 129/150/148
f 291/301/281 298/318/294 292/310/287
f 292/310/287 299/319/295 293/320/288
f 299/319/295 294/321/289 293/320/288
f 300/322/296 295/315/291 294/323/289
f 301/324/297 296/316/292 295/315/291
f 134/154/152 303/317/293 129/150/148
f 297/309/286 304/325/298 298/318/294
f 298/318/294 305/326/299 299/319/295
f 299/319/295 306/327/300 300/328/296
f 300/322/296 307/329/301 301/324/297
f 301/324/297 308/330/302 302/331/303
f 315/332/304 134/154/152 139/158/156
f 303/317/293 310/333/305 304/325/298
f 304/325/298 311/334/306 305/335/299
f 305/335/299 312/336/307 306/337/300
f 306/338/300 313/339/308 307/329/301
f 307/329/301 314/340/309 308/330/302
f 321/341/310 139/158/156 144/166/164
f 309/342/311 316/343/312 310/333/305
f 316/343/312 311/334/306 310/333/305
f 317/344/313 312/345/307 311/334/306
f 318/346/314 313/339/308 312/347/307
f 319/348/315 314/340/309 313/339/308
f 327/349/316 144/166/164 149/165/163
f 321/341/310 316/343/312 315/332/304
f 316/343/312 323/350/317 317/351/313
f 317/351/313 324/352/318 318/353/314
f 318/346/314 325/354/319 319/348/315
f 325/354/319 320/355/320 319/348/315
f 154/173/171 327/349/316 149/165/163
f 327/349/316 322/356/321 321/341/310
f 322/356/321 329/357/322 323/350/317
f 323/350/317 330/358/323 324/359/318
f 330/360/323 325/354/319 324/361/318
f 325/354/319 332/362/324 326/363/325
f 159/177/175 333/364/326 154/173/171
f 333/364/326 328/365/327 327/349/316
f 334/366/328 329/367/322 328/365/327
f 335/368/329 330/369/323 329/367/322
f 336/370/330 331/371/331 330/360/323
f 337/372/332 332/362/324 331/371/331
f 164/176/174 339/373/333 159/177/175
f 333/364/326 340/374/334 334/366/328
f 340/374/334 335/368/329 334/366/328
f 341/375/335 336/376/330 335/368/329
f 342/377/336 337/372/332 336/370/330
f 343/378/337 338/379/338 337/372/332
f 169/185/183 345/380/339 164/176/174
f 339/373/333 346/381/340 340/382/334
f 346/381/340 341/383/335 340/382/334
f 347/384/341 342/385/336 341/383/335
f 348/386/342 343/378/337 342/377/336
f 349/387/343 344/388/344 343/378/337
f 174/189/187 351/389/345 169/185/183
f 351/389/345 346/381/340 345/380/339
f 352/390/346 347/384/341 346/381/340
f 353/391/347 348/392/342 347/384/341
f 354/393/348 349/387/343 348/386/342
f 355/394/349 350/395/350 349/387/343
f 179/193/191 357/396/351 174/189/187
f 357/396/351 352/390/346 351/389/345
f 358/397/352 353/398/347 352/390/346
f 359/399/353 354/400/348 353/398/347
f 354/393/348 361/401/354 355/394/349
f 361/401/354 356/402/355 355/394/349
f 184/197/195 363/403/356 179/193/191
f 363/403/356 358/397/352 357/396/351
f 364/404/357 359/399/353 358/397/352
f 365/405/358 360/406/359 359/399/353
f 366/407/360 361/401/354 360/408/359
f 367/409/361 362/410/362 361/401/354
f 189/201/199 369/411/363 184/197/195
f 369/411/363 364/412/357 363/403/356
f 370/413/364 365/414/358 364/412/357
f 371/415/365 366/416/360 365/414/358
f 366/407/360 373/417/366 367/409/361
f 373/417/366 368/418/367 367/409/361
f 194/205/203 375/419/368 189/201/199
f 375/419/368 370/413/364 369/411/363
f 376/420/369 371/415/365 370/413/364
f 377/421/370 372/422/371 371/415/365
f 378/423/372 373/417/366 372/424/371
f 379/425/373 374/426/374 373/417/366
f 387/427/375 194/205/203 199/209/207
f 381/428/376 376/420/369 375/419/368
f 382/429/377 377/430/370 376/420/369
f 383/431/378 378/432/372 377/430/370
f 384/433/379 379/425/373 378/423/372
f 385/434/380 380/435/381 379/425/373
f 204/213/211 387/427/375 199/209/207
f 387/427/375 382/429/377 381/428/376
f 388/436/382 383/431/378 382/429/377
f 383/431/378 390/437/383 384/438/379
f 390/439/383 385/434/380 384/433/379
f 391/440/384 386/441/385 385/434/380
f 209/217/215 393/442/386 204/213/211
f 393/442/386 388/436/382 387/427/375
f 394/443/387 389/444/388 388/436/382
f 395/445/389 390/446/383 389/444/388
f 396/447/390 391/440/384 390/439/383
f 397/448/391 392/449/392 391/440/384
f 214/222/220 399/450/393 209/217/215
f 399/450/393 394/443/387 393/442/386
f 400/451/394 395/445/389 394/443/387
f 401/452/395 396/453/390 395/445/389
f 402/454/396 397/448/391 396/447/390
f 403/455/397 398/456/398 397/448/391
f 411/457/399 214/222/220 219/221/219
f 399/450/393 406/458/400 400/451/394
f 400/451/394 407/459/401 401/460/395
f 401/460/395 408/461/402 402/462/396
f 402/454/396 409/463/403 403/455/397
f 403/455/397 410/464/404 404/465/405
f 221/466/62 411/457/399 219/221/219
f 405/467/406 412/468/407 406/458/400
f 412/468/407 407/459/401 406/458/400
f 407/459/401 414/469/408 408/470/402
f 414/471/408 409/463/403 408/472/402
f 415/473/409 410/464/404 409/463/403
f 230/474/61 412/468/407 411/457/399
f 229/475/223 413/476/410 412/468/407
f 228/477/225 414/478/408 413/476/410
f 414/471/408 226/233/229 415/473/409
f 226/233/229 416/479/411 415/473/409
f 225/236/231 278/300/280 326/363/325
f 605/480/412 417/481/413 419/482/414
f 431/483/415 417/481/413 436/484/416
f 436/484/416 417/481/413 442/485/417
f 442/485/417 417/481/413 448/486/418
f 448/486/418 417/481/413 454/487/419
f 454/487/419 417/481/413 460/488/420
f 460/488/420 417/481/413 466/489/421
f 466/489/421 417/481/413 472/490/422
f 472/490/422 417/481/413 478/491/423
f 478/491/423 417/481/413 484/492/424
f 484/492/424 417/481/413 490/493/425
f 490/493/425 417/481/413 496/494/426
f 496/494/426 417/481/413 502/495/427
f 502/495/427 417/481/413 508/496/428
f 508/496/428 417/481/413 514/497/429
f 514/497/429 417/481/413 521/498/430
f 521/498/430 417/481/413 527/499/431
f 527/499/431 417/481/413 533/500/432
f 533/500/432 417/481/413 539/501/433
f 539/501/433 417/481/413 545/502/434
f 545/502/434 417/481/413 551/503/435
f 551/503/435 417/481/413 557/504/436
f 557/504/436 417/481/413 563/505/437
f 563/505/437 417/481/413 569/506/438
f 569/506/438 417/481/413 575/507/439
f 575/507/439 417/481/413 581/508/440
f 581/508/440 417/481/413 587/509/441
f 587/509/441 417/481/413 593/510/442
f 593/510/442 417/481/413 599/511/443
f 599/511/443 417/481/413 605/480/412
f 425/512/444 417/481/413 431/483/415
f 419/482/414 417/481/413 425/512/444
f 425/512/444 423/513/445 419/482/414
f 429/514/446 422/515/447 423/513/445
f 422/515/447 427/516/448 421/517/449
f 421/518/449 426/519/450 420/520/451
f 420/520/451 424/521/452 418/522/453
f 431/483/415 429/523/446 425/512/444
f 435/524/454 428/525/455 429/523/446
f 434/526/456 427/527/448 428/525/455
f 433/528/457 426/519/450 427/529/448
f 432/530/458 424/521/452 426/519/450
f 436/484/416 435/531/454 431/483/415
f 438/532/459 434/533/456 435/531/454
f 439/534/460 433/535/457 434/533/456
f 440/536/461 432/530/458 433/528/457
f 441/537/462 430/538/463 432/530/458
f 442/485/417 438/539/459 436/484/416
f 444/540/464 439/541/460 438/539/459
f 445/542/465 440/543/461 439/541/460
f 446/544/466 441/537/462 440/536/461
f 441/537/462 443/545/467 437/546/468
f 448/486/418 444/547/464 442/485/417
f 444/547/464 451/548/469 445/549/465
f 451/548/469 446/550/466 445/549/465
f 446/544/466 453/551/470 447/552/471
f 447/552/471 449/553/472 443/545/467
f 448/486/418 456/554/473 450/555/474
f 456/554/473 451/556/469 450/555/474
f 451/556/469 458/557/475 452/558/476
f 452/559/476 459/560/477 453/551/470
f 453/551/470 455/561/478 449/553/472
f 454/487/419 462/562/479 456/563/473
f 462/562/479 457/564/480 456/563/473
f 457/564/480 464/565/481 458/566/475
f 464/567/481 459/560/477 458/568/475
f 465/569/482 455/561/478 459/560/477
f 466/489/421 462/570/479 460/488/420
f 468/571/483 463/572/484 462/570/479
f 469/573/485 464/574/481 463/572/484
f 470/575/486 465/569/482 464/567/481
f 471/576/487 461/577/488 465/569/482
f 472/490/422 468/578/483 466/489/421
f 474/579/489 469/580/485 468/578/483
f 469/580/485 476/581/490 470/582/486
f 476/583/490 471/576/487 470/575/486
f 471/576/487 473/584/491 467/585/492
f 478/491/423 474/586/489 472/490/422
f 480/587/493 475/588/494 474/586/489
f 475/588/494 482/589/495 476/590/490
f 482/591/495 477/592/496 476/583/490
f 483/593/497 473/584/491 477/592/496
f 484/492/424 480/594/493 478/491/423
f 486/595/498 481/596/499 480/594/493
f 487/597/500 482/598/495 481/596/499
f 488/599/501 483/593/497 482/591/495
f 489/600/502 479/601/503 483/593/497
f 490/493/425 486/602/498 484/492/424
f 486/602/498 493/603/504 487/604/500
f 493/603/504 488/605/501 487/604/500
f 494/606/505 489/600/502 488/599/501
f 495/607/506 485/608/507 489/600/502
f 490/493/425 498/609/508 492/610/509
f 498/609/508 493/611/504 492/610/509
f 499/612/510 494/613/505 493/611/504
f 494/606/505 501/614/511 495/607/506
f 501/614/511 491/615/512 495/607/506
f 496/494/426 504/616/513 498/617/508
f 504/616/513 499/618/510 498/617/508
f 499/618/510 506/619/514 500/620/515
f 500/621/515 507/622/516 501/614/511
f 501/614/511 503/623/517 497/624/518
f 502/495/427 510/625/519 504/626/513
f 510/625/519 505/627/520 504/626/513
f 505/627/520 512/628/521 506/629/514
f 512/630/521 507/622/516 506/631/514
f 513/632/522 503/623/517 507/622/516
f 514/497/429 510/633/519 508/496/428
f 516/634/523 511/635/524 510/633/519
f 517/636/525 512/637/521 511/635/524
f 512/630/521 519/638/526 513/632/522
f 513/632/522 515/639/527 509/640/528
f 521/498/430 516/641/523 514/497/429
f 525/642/529 517/643/525 516/641/523
f 524/644/530 518/645/531 517/643/525
f 523/646/532 519/638/526 518/647/531
f 522/648/533 515/639/527 519/638/526
f 527/499/431 525/649/529 521/498/430
f 531/650/534 524/651/530 525/649/529
f 530/652/535 523/653/532 524/651/530
f 529/654/536 522/648/533 523/646/532
f 528/655/537 520/656/538 522/648/533
f 533/500/432 531/657/534 527/499/431
f 537/658/539 530/659/535 531/657/534
f 530/659/535 535/660/540 529/661/536
f 535/662/540 528/655/537 529/654/536
f 528/655/537 532/663/541 526/664/542
f 533/500/432 543/665/543 537/666/539
f 537/666/539 542/667/544 536/668/545
f 542/667/544 535/669/540 536/668/545
f 541/670/546 534/671/547 535/662/540
f 534/671/547 538/672/548 532/663/541
f 539/501/433 549/673/549 543/674/543
f 543/674/543 548/675/550 542/676/544
f 548/675/550 541/677/546 542/676/544
f 541/670/546 546/678/551 540/679/552
f 540/679/552 544/680/553 538/672/548
f 551/503/435 549/681/549 545/502/434
f 549/681/549 554/682/554 548/683/550
f 554/682/554 547/684/555 548/683/550
f 547/685/555 552/686/556 546/678/551
f 546/678/551 550/687/557 544/680/553
f 557/504/436 555/688/558 551/503/435
f 561/689/559 554/690/554 555/688/558
f 554/690/554 559/691/560 553/692/561
f 559/693/560 552/686/556 553/694/561
f 558/695/562 550/687/557 552/686/556
f 563/505/437 561/696/559 557/504/436
f 567/697/563 560/698/564 561/696/559
f 560/698/564 565/699/565 559/700/560
f 559/693/560 564/701/566 558/695/562
f 558/695/562 562/702/567 556/703/568
f 569/506/438 567/704/563 563/505/437
f 567/704/563 572/705/569 566/706/570
f 566/706/570 571/707/571 565/708/565
f 571/709/571 564/701/566 565/710/565
f 570/711/572 562/702/567 564/701/566
f 575/507/439 573/712/573 569/506/438
f 579/713/574 572/714/569 573/712/573
f 578/715/575 571/716/571 572/714/569
f 571/709/571 576/717/576 570/711/572
f 576/717/576 568/718/577 570/711/572
f 581/508/440 579/719/574 575/507/439
f 585/720/578 578/721/575 579/719/574
f 584/722/579 577/723/580 578/721/575
f 583/724/581 576/717/576 577/725/580
f 582/726/582 574/727/583 576/717/576
f 581/508/440 591/728/584 585/729/578
f 591/728/584 584/730/579 585/729/578
f 590/731/585 583/732/581 584/730/579
f 583/724/581 588/733/586 582/726/582
f 582/726/582 586/734/587 580/735/588
f 587/509/441 597/736/589 591/737/584
f 597/736/589 590/738/585 591/737/584
f 596/739/590 589/740/591 590/738/585
f 595/741/592 588/733/586 589/742/591
f 594/743/593 586/734/587 588/733/586
f 599/511/443 597/744/589 593/510/442
f 597/744/589 602/745/594 596/746/590
f 602/745/594 595/747/592 596/746/590
f 601/748/595 594/743/593 595/741/592
f 594/743/593 598/749/596 592/750/597
f 605/480/412 603/751/598 599/511/443
f 603/751/598 608/752/599 602/753/594
f 608/752/599 601/754/595 602/753/594
f 607/755/600 600/756/601 601/748/595
f 606/757/602 598/749/596 600/756/601
f 419/482/414 609/758/603 605/480/412
f 423/759/445 608/760/599 609/758/603
f 422/761/447 607/762/600 608/760/599
f 421/518/449 606/757/602 607/755/600
f 606/757/602 418/522/453 604/763/604
f 424/764/452 1/765/605 418/766/453
f 497/767/518 503/768/517 15/769/26
f 430/770/463 2/771/2 424/764/452
f 17/772/30 16/773/28 509/774/528
f 32/775/59 598/776/596 604/777/604
f 538/778/548 544/779/553 22/780/40
f 443/781/467 4/782/7 437/783/468
f 592/784/597 31/785/57 30/786/55
f 15/769/26 503/768/517 509/774/528
f 15/769/26 14/787/24 497/767/518
f 430/770/463 437/783/468 3/788/5
f 23/789/42 22/780/40 544/779/553
f 491/790/512 14/787/24 13/791/21
f 574/792/583 28/793/51 27/794/48
f 586/795/587 30/786/55 29/796/53
f 2/771/2 430/770/463 3/788/5
f 580/797/588 29/796/53 28/793/51
f 2/771/2 1/765/605 424/764/452
f 592/784/597 598/776/596 31/785/57
f 550/798/557 556/799/568 24/800/44
f 455/801/478 6/802/606 449/803/472
f 4/782/7 443/781/467 5/804/9
f 26/805/607 562/806/567 568/807/577
f 8/808/608 7/809/11 461/810/488
f 568/807/577 574/792/583 27/794/48
f 6/802/606 455/801/478 7/809/11
f 27/794/48 26/805/607 568/807/577
f 467/811/492 8/808/608 461/810/488
f 4/782/7 3/788/5 437/783/468
f 455/801/478 461/810/488 7/809/11
f 25/812/46 562/806/567 26/805/607
f 467/811/492 9/813/14 8/808/608
f 25/812/46 556/799/568 562/806/567
f 473/814/491 9/813/14 467/811/492
f 24/800/44 556/799/568 25/812/46
f 473/814/491 10/815/16 9/813/14
f 23/789/42 550/798/557 24/800/44
f 473/814/491 11/816/19 10/815/16
f 18/817/32 17/772/30 515/818/527
f 473/814/491 479/819/503 11/816/19
f 19/820/34 18/817/32 526/821/542
f 21/822/38 538/778/548 22/780/40
f 479/819/503 485/823/507 12/824/609
f 20/825/36 538/778/548 21/822/38
f 598/776/596 32/775/59 31/785/57
f 19/820/34 532/826/541 20/825/36
f 485/823/507 13/791/21 12/824/609
f 574/792/583 580/797/588 28/793/51
f 16/773/28 15/769/26 509/774/528
f 14/787/24 491/790/512 497/767/518
f 485/823/507 491/790/512 13/791/21
f 532/826/541 538/778/548 20/825/36
f 580/797/588 586/795/587 29/796/53
f 1/765/605 32/775/59 604/777/604
f 550/798/557 23/789/42 544/779/553
f 6/802/606 5/804/9 449/803/472
f 479/819/503 12/824/609 11/816/19
f 586/795/587 592/784/597 30/786/55
f 532/826/541 19/820/34 526/821/542
f 17/772/30 509/774/528 515/818/527
f 526/821/542 18/817/32 520/827/538
f 1/765/605 604/777/604 418/766/453
f 520/827/538 18/817/32 515/818/527
f 443/781/467 449/803/472 5/804/9
f 33/1/1 1/828/605 2/2/2
f 2/2/2 3/5/5 35/4/4
f 3/5/5 4/7/7 36/6/6
f 4/7/7 5/9/9 37/8/8
f 5/9/9 6/829/606 38/10/10
f 38/10/10 6/829/606 7/11/11
f 7/11/11 8/830/608 40/13/13
f 40/13/13 8/830/608 9/14/14
f 41/15/15 9/14/14 10/16/16
f 10/16/16 11/19/19 43/18/18
f 11/19/19 12/831/609 44/20/20
f 44/20/20 12/831/609 13/21/21
f 13/21/21 14/24/24 46/23/23
f 14/24/24 15/26/26 47/25/25
f 15/26/26 16/28/28 48/27/27
f 16/28/28 17/30/30 49/29/29
f 17/30/30 18/32/32 50/31/31
f 18/32/32 19/34/34 51/33/33
f 19/34/34 20/36/36 52/35/35
f 20/36/36 21/38/38 53/37/37
f 21/38/38 22/40/40 54/39/39
f 22/40/40 23/42/42 55/41/41
f 23/42/42 24/44/44 56/43/43
f 24/44/44 25/46/46 57/45/45
f 25/46/46 26/832/607 58/47/47
f 58/47/47 26/832/607 27/48/48
f 27/48/48 28/51/51 60/50/50
f 28/51/51 29/53/53 61/52/52
f 29/53/53 30/55/55 62/54/54
f 30/55/55 31/57/57 63/56/56
f 31/57/57 32/59/59 64/58/58
f 32/59/59 1/833/605 33/60/1
f 69/61/60 231/226/222 230/62/61
f 33/1/1 34/3/3 65/64/63
f 65/64/63 34/3/3 35/4/4
f 35/4/4 36/6/6 75/67/66
f 36/6/6 37/8/8 80/68/67
f 37/8/8 38/10/10 85/69/68
f 38/10/10 39/12/12 90/70/69
f 39/12/12 40/13/13 95/71/70
f 40/13/13 41/15/15 100/72/71
f 41/15/15 42/17/17 105/73/72
f 42/17/17 43/18/18 110/74/73
f 43/18/18 44/20/20 115/75/74
f 44/20/20 45/22/22 120/76/75
f 45/22/22 46/23/23 125/77/76
f 46/23/23 47/25/25 130/78/77
f 47/25/25 48/27/27 135/79/78
f 48/27/27 49/29/29 140/80/79
f 140/80/79 49/29/29 50/31/31
f 145/81/80 50/31/31 51/33/33
f 150/82/81 51/33/33 52/35/35
f 155/83/82 52/35/35 53/37/37
f 160/84/83 53/37/37 54/39/39
f 165/85/84 54/39/39 55/41/41
f 170/86/85 55/41/41 56/43/43
f 175/87/86 56/43/43 57/45/45
f 180/88/87 57/45/45 58/47/47
f 185/89/88 58/47/47 59/49/49
f 190/90/89 59/49/49 60/50/50
f 60/50/50 61/52/52 200/92/91
f 61/52/52 62/54/54 205/93/92
f 205/93/92 62/54/54 63/56/56
f 210/94/93 63/56/56 64/58/58
f 64/58/58 33/60/1 220/96/64
f 65/64/63 66/98/96 224/97/95
f 66/98/96 67/100/98 223/99/97
f 67/100/98 68/102/100 222/101/99
f 68/102/100 69/61/60 221/63/62
f 65/64/63 70/66/65 71/103/101
f 71/103/101 72/104/102 67/100/98
f 72/104/102 73/109/107 68/102/100
f 68/102/100 73/109/107 74/105/103
f 70/66/65 75/67/66 76/106/104
f 71/103/101 76/106/104 77/107/105
f 72/104/102 77/107/105 78/108/106
f 73/109/107 78/108/106 79/110/108
f 80/68/67 81/111/109 76/106/104
f 81/111/109 82/112/110 77/107/105
f 82/112/110 83/113/111 78/108/106
f 83/113/111 84/117/115 79/110/108
f 80/68/67 85/69/68 86/114/112
f 81/111/109 86/114/112 87/115/113
f 87/115/113 88/116/114 83/113/111
f 88/116/114 89/121/119 84/117/115
f 90/70/69 91/123/121 86/114/112
f 86/114/112 91/123/121 92/118/116
f 87/115/113 92/118/116 93/119/117
f 88/116/114 93/119/117 94/120/118
f 90/70/69 95/71/70 96/122/120
f 91/123/121 96/122/120 97/124/122
f 92/118/116 97/124/122 98/125/123
f 93/119/117 98/125/123 99/126/124
f 95/71/70 100/72/71 101/127/125
f 96/122/120 101/127/125 102/128/126
f 97/124/122 102/128/126 103/129/127
f 98/125/123 103/129/127 104/130/128
f 100/72/71 105/73/72 106/131/129
f 101/127/125 106/131/129 107/132/130
f 102/128/126 107/132/130 108/133/131
f 103/129/127 108/133/131 109/134/132
f 110/74/73 111/135/133 106/131/129
f 111/135/133 112/136/134 107/132/130
f 112/136/134 113/137/135 108/133/131
f 113/137/135 114/142/140 109/134/132
f 110/74/73 115/75/74 116/138/136
f 111/135/133 116/138/136 117/139/137
f 112/136/134 117/139/137 118/140/138
f 113/137/135 118/140/138 119/141/139
f 115/75/74 120/76/75 121/143/141
f 116/138/136 121/143/141 122/144/142
f 117/139/137 122/144/142 123/145/143
f 118/140/138 123/145/143 124/146/144
f 120/76/75 125/77/76 126/147/145
f 121/143/141 126/147/145 127/148/146
f 122/144/142 127/148/146 128/149/147
f 123/145/143 128/149/147 129/150/148
f 125/77/76 130/78/77 131/151/149
f 126/147/145 131/151/149 132/152/150
f 127/148/146 132/152/150 133/153/151
f 128/149/147 133/153/151 134/154/152
f 130/78/77 135/79/78 136/155/153
f 131/151/149 136/155/153 137/156/154
f 132/152/150 137/156/154 138/157/155
f 133/153/151 138/157/155 139/158/156
f 140/80/79 141/159/157 136/155/153
f 141/159/157 142/160/158 137/156/154
f 142/160/158 143/161/159 138/157/155
f 143/161/159 144/166/164 139/158/156
f 140/80/79 145/81/80 146/162/160
f 141/159/157 146/162/160 147/163/161
f 142/160/158 147/163/161 148/164/162
f 143/161/159 148/164/162 149/165/163
f 150/82/81 151/167/165 146/162/160
f 151/167/165 152/168/166 147/163/161
f 152/168/166 153/169/167 148/164/162
f 153/169/167 154/173/171 149/165/163
f 155/83/82 156/170/168 151/167/165
f 156/170/168 157/171/169 152/168/166
f 157/171/169 158/172/170 153/169/167
f 158/172/170 159/177/175 154/173/171
f 160/84/83 161/174/172 156/170/168
f 161/174/172 162/175/173 157/171/169
f 162/175/173 163/180/178 158/172/170
f 158/172/170 163/180/178 164/176/174
f 165/85/84 166/178/176 161/174/172
f 166/178/176 167/179/177 162/175/173
f 167/179/177 168/181/179 163/180/178
f 168/181/179 169/185/183 164/176/174
f 170/86/85 171/182/180 166/178/176
f 171/182/180 172/183/181 167/179/177
f 172/183/181 173/184/182 168/181/179
f 173/184/182 174/189/187 169/185/183
f 170/86/85 175/87/86 176/186/184
f 171/182/180 176/186/184 177/187/185
f 177/187/185 178/188/186 173/184/182
f 178/188/186 179/193/191 174/189/187
f 180/88/87 181/190/188 176/186/184
f 181/190/188 182/191/189 177/187/185
f 182/191/189 183/192/190 178/188/186
f 183/192/190 184/197/195 179/193/191
f 185/89/88 186/194/192 181/190/188
f 186/194/192 187/195/193 182/191/189
f 187/195/193 188/196/194 183/192/190
f 188/196/194 189/201/199 184/197/195
f 190/90/89 191/198/196 186/194/192
f 191/198/196 192/199/197 187/195/193
f 192/199/197 193/200/198 188/196/194
f 193/200/198 194/205/203 189/201/199
f 195/91/90 196/202/200 191/198/196
f 196/202/200 197/203/201 192/199/197
f 197/203/201 198/204/202 193/200/198
f 198/204/202 199/209/207 194/205/203
f 200/92/91 201/206/204 196/202/200
f 201/206/204 202/207/205 197/203/201
f 202/207/205 203/208/206 198/204/202
f 203/208/206 204/213/211 199/209/207
f 205/93/92 206/210/208 201/206/204
f 206/210/208 207/211/209 202/207/205
f 207/211/209 208/212/210 203/208/206
f 208/212/210 209/217/215 204/213/211
f 210/94/93 211/214/212 206/210/208
f 211/214/212 212/215/213 207/211/209
f 212/215/213 213/216/214 208/212/210
f 213/216/214 214/222/220 209/217/215
f 210/94/93 215/95/94 216/218/216
f 211/214/212 216/218/216 217/219/217
f 212/215/213 217/219/217 218/220/218
f 213/216/214 218/220/218 219/221/219
f 220/96/64 224/834/95 216/218/216
f 216/218/216 224/834/95 223/223/97
f 217/219/217 223/223/97 222/224/99
f 222/224/99 221/466/62 219/221/219
f 237/225/221 231/226/222 69/61/60
f 231/226/222 232/228/224 229/227/223
f 232/228/224 233/230/226 228/229/225
f 233/230/226 234/835/228 227/231/227
f 234/232/228 235/235/230 226/233/229
f 235/235/230 236/244/237 225/236/231
f 243/237/232 237/225/221 74/105/103
f 231/226/222 237/225/221 238/238/233
f 232/228/224 238/238/233 239/239/234
f 239/239/234 240/836/235 234/241/228
f 240/242/235 241/243/236 235/235/230
f 241/243/236 242/249/241 236/244/237
f 84/117/115 249/251/243 243/237/232
f 243/237/232 244/252/244 238/238/233
f 238/238/233 244/252/244 245/245/238
f 245/245/238 246/837/247 240/246/235
f 240/242/235 246/257/247 247/247/239
f 241/243/236 247/247/239 248/248/240
f 255/250/242 249/251/243 84/117/115
f 249/251/243 250/261/251 244/252/244
f 244/252/244 250/261/251 251/253/245
f 245/254/238 251/253/245 252/255/246
f 246/257/247 252/266/246 253/258/248
f 253/258/248 254/268/255 248/248/240
f 261/259/249 255/250/242 89/121/119
f 249/251/243 255/250/242 256/260/250
f 250/261/251 256/260/250 257/262/252
f 251/253/245 257/262/252 258/263/253
f 258/265/253 259/275/260 253/258/248
f 253/258/248 259/275/260 260/267/254
f 267/269/256 261/259/249 94/120/118
f 255/250/242 261/259/249 262/270/257
f 262/270/257 263/272/258 257/271/252
f 263/272/258 264/838/259 258/273/253
f 264/274/259 265/276/261 259/275/260
f 265/276/261 266/284/268 260/267/254
f 273/277/262 267/269/256 99/126/124
f 261/259/249 267/269/256 268/278/263
f 262/270/257 268/278/263 269/279/264
f 263/272/258 269/279/264 270/280/265
f 264/274/259 270/291/265 271/282/266
f 265/276/261 271/282/266 272/283/267
f 279/285/269 273/277/262 104/130/128
f 267/269/256 273/277/262 274/286/270
f 274/286/270 275/288/271 269/287/264
f 275/288/271 276/839/272 270/289/265
f 276/290/272 277/292/273 271/282/266
f 277/292/273 278/300/280 272/283/267
f 285/293/274 279/285/269 109/134/132
f 273/277/262 279/285/269 280/294/275
f 274/286/270 280/294/275 281/295/276
f 275/288/271 281/295/276 282/296/277
f 276/290/272 282/306/277 283/298/278
f 277/292/273 283/298/278 284/299/279
f 291/301/281 285/293/274 114/142/140
f 279/285/269 285/293/274 286/302/282
f 280/294/275 286/302/282 287/303/283
f 287/303/283 288/840/290 282/305/277
f 282/306/277 288/314/290 289/307/284
f 283/298/278 289/307/284 290/308/285
f 297/309/286 291/301/281 119/141/139
f 285/293/274 291/301/281 292/310/287
f 286/302/282 292/310/287 293/311/288
f 287/303/283 293/311/288 294/312/289
f 288/314/290 294/323/289 295/315/291
f 289/307/284 295/315/291 296/316/292
f 303/317/293 297/309/286 124/146/144
f 291/301/281 297/309/286 298/318/294
f 292/310/287 298/318/294 299/319/295
f 299/319/295 300/841/296 294/321/289
f 300/322/296 301/324/297 295/315/291
f 301/324/297 302/331/303 296/316/292
f 134/154/152 309/342/311 303/317/293
f 297/309/286 303/317/293 304/325/298
f 298/318/294 304/325/298 305/326/299
f 299/319/295 305/326/299 306/327/300
f 300/322/296 306/338/300 307/329/301
f 301/324/297 307/329/301 308/330/302
f 315/332/304 309/342/311 134/154/152
f 303/317/293 309/342/311 310/333/305
f 304/325/298 310/333/305 311/334/306
f 305/335/299 311/334/306 312/336/307
f 306/338/300 312/347/307 313/339/308
f 307/329/301 313/339/308 314/340/309
f 321/341/310 315/332/304 139/158/156
f 309/342/311 315/332/304 316/343/312
f 316/343/312 317/344/313 311/334/306
f 317/344/313 318/842/314 312/345/307
f 318/346/314 319/348/315 313/339/308
f 319/348/315 320/355/320 314/340/309
f 327/349/316 321/341/310 144/166/164
f 321/341/310 322/356/321 316/343/312
f 316/343/312 322/356/321 323/350/317
f 317/351/313 323/350/317 324/352/318
f 318/346/314 324/361/318 325/354/319
f 325/354/319 326/363/325 320/355/320
f 154/173/171 333/364/326 327/349/316
f 327/349/316 328/365/327 322/356/321
f 322/356/321 328/365/327 329/357/322
f 323/350/317 329/357/322 330/358/323
f 330/360/323 331/371/331 325/354/319
f 325/354/319 331/371/331 332/362/324
f 159/177/175 339/843/333 333/364/326
f 333/364/326 334/366/328 328/365/327
f 334/366/328 335/368/329 329/367/322
f 335/368/329 336/844/330 330/369/323
f 336/370/330 337/372/332 331/371/331
f 337/372/332 338/379/338 332/362/324
f 164/176/174 345/380/339 339/373/333
f 333/364/326 339/843/333 340/374/334
f 340/374/334 341/375/335 335/368/329
f 341/375/335 342/845/336 336/376/330
f 342/377/336 343/378/337 337/372/332
f 343/378/337 344/388/344 338/379/338
f 169/185/183 351/389/345 345/380/339
f 339/373/333 345/380/339 346/381/340
f 346/381/340 347/384/341 341/383/335
f 347/384/341 348/846/342 342/385/336
f 348/386/342 349/387/343 343/378/337
f 349/387/343 350/395/350 344/388/344
f 174/189/187 357/396/351 351/389/345
f 351/389/345 352/390/346 346/381/340
f 352/390/346 353/391/347 347/384/341
f 353/391/347 354/847/348 348/392/342
f 354/393/348 355/394/349 349/387/343
f 355/394/349 356/402/355 350/395/350
f 179/193/191 363/403/356 357/396/351
f 357/396/351 358/397/352 352/390/346
f 358/397/352 359/399/353 353/398/347
f 359/399/353 360/848/359 354/400/348
f 354/393/348 360/408/359 361/401/354
f 361/401/354 362/410/362 356/402/355
f 184/197/195 369/411/363 363/403/356
f 363/403/356 364/404/357 358/397/352
f 364/404/357 365/405/358 359/399/353
f 365/405/358 366/849/360 360/406/359
f 366/407/360 367/409/361 361/401/354
f 367/409/361 368/418/367 362/410/362
f 189/201/199 375/419/368 369/411/363
f 369/411/363 370/413/364 364/412/357
f 370/413/364 371/415/365 365/414/358
f 371/415/365 372/850/371 366/416/360
f 366/407/360 372/424/371 373/417/366
f 373/417/366 374/426/374 368/418/367
f 194/205/203 381/428/376 375/419/368
f 375/419/368 376/420/369 370/413/364
f 376/420/369 377/421/370 371/415/365
f 377/421/370 378/851/372 372/422/371
f 378/423/372 379/425/373 373/417/366
f 379/425/373 380/435/381 374/426/374
f 387/427/375 381/428/376 194/205/203
f 381/428/376 382/429/377 376/420/369
f 382/429/377 383/431/378 377/430/370
f 383/431/378 384/852/379 378/432/372
f 384/433/379 385/434/380 379/425/373
f 385/434/380 386/441/385 380/435/381
f 204/213/211 393/442/386 387/427/375
f 387/427/375 388/436/382 382/429/377
f 388/436/382 389/853/388 383/431/378
f 383/431/378 389/853/388 390/437/383
f 390/439/383 391/440/384 385/434/380
f 391/440/384 392/449/392 386/441/385
f 209/217/215 399/450/393 393/442/386
f 393/442/386 394/443/387 388/436/382
f 394/443/387 395/445/389 389/444/388
f 395/445/389 396/854/390 390/446/383
f 396/447/390 397/448/391 391/440/384
f 397/448/391 398/456/398 392/449/392
f 214/222/220 405/467/406 399/450/393
f 399/450/393 400/451/394 394/443/387
f 400/451/394 401/452/395 395/445/389
f 401/452/395 402/855/396 396/453/390
f 402/454/396 403/455/397 397/448/391
f 403/455/397 404/465/405 398/456/398
f 411/457/399 405/467/406 214/222/220
f 399/450/393 405/467/406 406/458/400
f 400/451/394 406/458/400 407/459/401
f 401/460/395 407/459/401 408/461/402
f 402/454/396 408/472/402 409/463/403
f 403/455/397 409/463/403 410/464/404
f 221/466/62 230/474/61 411/457/399
f 405/467/406 411/457/399 412/468/407
f 412/468/407 413/856/410 407/459/401
f 407/459/401 413/856/410 414/469/408
f 414/471/408 415/473/409 409/463/403
f 415/473/409 416/479/411 410/464/404
f 230/474/61 229/475/223 412/468/407
f 229/475/223 228/477/225 413/476/410
f 228/477/225 227/857/227 414/478/408
f 414/471/408 227/234/227 226/233/229
f 226/233/229 225/236/231 416/479/411
f 225/236/231 236/244/237 254/268/255
f 236/244/237 242/249/241 254/268/255
f 242/249/241 248/248/240 254/268/255
f 254/268/255 260/267/254 266/284/268
f 266/284/268 272/283/267 278/300/280
f 278/300/280 284/299/279 290/308/285
f 290/308/285 296/316/292 302/331/303
f 302/331/303 308/330/302 326/363/325
f 308/330/302 314/340/309 326/363/325
f 314/340/309 320/355/320 326/363/325
f 326/363/325 332/362/324 338/379/338
f 338/379/338 344/388/344 350/395/350
f 350/395/350 356/402/355 362/410/362
f 362/410/362 368/418/367 350/395/350
f 368/418/367 374/426/374 350/395/350
f 374/426/374 380/435/381 398/456/398
f 380/435/381 386/441/385 398/456/398
f 386/441/385 392/449/392 398/456/398
f 398/456/398 404/465/405 225/236/231
f 404/465/405 410/464/404 225/236/231
f 410/464/404 416/479/411 225/236/231
f 254/268/255 266/284/268 225/236/231
f 266/284/268 278/300/280 225/236/231
f 278/300/280 290/308/285 302/331/303
f 326/363/325 338/379/338 350/395/350
f 278/300/280 302/331/303 326/363/325
f 326/363/325 350/395/350 374/426/374
f 374/426/374 398/456/398 326/363/325
f 398/456/398 225/236/231 326/363/325
f 425/512/444 429/514/446 423/513/445
f 429/514/446 428/858/455 422/515/447
f 422/515/447 428/858/455 427/516/448
f 421/518/449 427/529/448 426/519/450
f 420/520/451 426/519/450 424/521/452
f 431/483/415 435/524/454 429/523/446
f 435/524/454 434/526/456 428/525/455
f 434/526/456 433/859/457 427/527/448
f 433/528/457 432/530/458 426/519/450
f 432/530/458 430/538/463 424/521/452
f 436/484/416 438/532/459 435/531/454
f 438/532/459 439/534/460 434/533/456
f 439/534/460 440/860/461 433/535/457
f 440/536/461 441/537/462 432/530/458
f 441/537/462 437/546/468 430/538/463
f 442/485/417 444/540/464 438/539/459
f 444/540/464 445/542/465 439/541/460
f 445/542/465 446/861/466 440/543/461
f 446/544/466 447/552/471 441/537/462
f 441/537/462 447/552/471 443/545/467
f 448/486/418 450/862/474 444/547/464
f 444/547/464 450/862/474 451/548/469
f 451/548/469 452/863/476 446/550/466
f 446/544/466 452/559/476 453/551/470
f 447/552/471 453/551/470 449/553/472
f 448/486/418 454/487/419 456/554/473
f 456/554/473 457/864/480 451/556/469
f 451/556/469 457/864/480 458/557/475
f 452/559/476 458/568/475 459/560/477
f 453/551/470 459/560/477 455/561/478
f 454/487/419 460/488/420 462/562/479
f 462/562/479 463/865/484 457/564/480
f 457/564/480 463/865/484 464/565/481
f 464/567/481 465/569/482 459/560/477
f 465/569/482 461/577/488 455/561/478
f 466/489/421 468/571/483 462/570/479
f 468/571/483 469/573/485 463/572/484
f 469/573/485 470/866/486 464/574/481
f 470/575/486 471/576/487 465/569/482
f 471/576/487 467/585/492 461/577/488
f 472/490/422 474/579/489 468/578/483
f 474/579/489 475/867/494 469/580/485
f 469/580/485 475/867/494 476/581/490
f 476/583/490 477/592/496 471/576/487
f 471/576/487 477/592/496 473/584/491
f 478/491/423 480/587/493 474/586/489
f 480/587/493 481/868/499 475/588/494
f 475/588/494 481/868/499 482/589/495
f 482/591/495 483/593/497 477/592/496
f 483/593/497 479/601/503 473/584/491
f 484/492/424 486/595/498 480/594/493
f 486/595/498 487/597/500 481/596/499
f 487/597/500 488/869/501 482/598/495
f 488/599/501 489/600/502 483/593/497
f 489/600/502 485/608/507 479/601/503
f 490/493/425 492/870/509 486/602/498
f 486/602/498 492/870/509 493/603/504
f 493/603/504 494/871/505 488/605/501
f 494/606/505 495/607/506 489/600/502
f 495/607/506 491/615/512 485/608/507
f 490/493/425 496/494/426 498/609/508
f 498/609/508 499/612/510 493/611/504
f 499/612/510 500/872/515 494/613/505
f 494/606/505 500/621/515 501/614/511
f 501/614/511 497/624/518 491/615/512
f 496/494/426 502/495/427 504/616/513
f 504/616/513 505/873/520 499/618/510
f 499/618/510 505/873/520 506/619/514
f 500/621/515 506/631/514 507/622/516
f 501/614/511 507/622/516 503/623/517
f 502/495/427 508/496/428 510/625/519
f 510/625/519 511/874/524 505/627/520
f 505/627/520 511/874/524 512/628/521
f 512/630/521 513/632/522 507/622/516
f 513/632/522 509/640/528 503/623/517
f 514/497/429 516/634/523 510/633/519
f 516/634/523 517/636/525 511/635/524
f 517/636/525 518/875/531 512/637/521
f 512/630/521 518/647/531 519/638/526
f 513/632/522 519/638/526 515/639/527
f 521/498/430 525/642/529 516/641/523
f 525/642/529 524/644/530 517/643/525
f 524/644/530 523/876/532 518/645/531
f 523/646/532 522/648/533 519/638/526
f 522/648/533 520/656/538 515/639/527
f 527/499/431 531/650/534 525/649/529
f 531/650/534 530/652/535 524/651/530
f 530/652/535 529/877/536 523/653/532
f 529/654/536 528/655/537 522/648/533
f 528/655/537 526/664/542 520/656/538
f 533/500/432 537/658/539 531/657/534
f 537/658/539 536/878/545 530/659/535
f 530/659/535 536/878/545 535/660/540
f 535/662/540 534/671/547 528/655/537
f 528/655/537 534/671/547 532/663/541
f 533/500/432 539/501/433 543/665/543
f 537/666/539 543/665/543 542/667/544
f 542/667/544 541/879/546 535/669/540
f 541/670/546 540/679/552 534/671/547
f 534/671/547 540/679/552 538/672/548
f 539/501/433 545/502/434 549/673/549
f 543/674/543 549/673/549 548/675/550
f 548/675/550 547/880/555 541/677/546
f 541/670/546 547/685/555 546/678/551
f 540/679/552 546/678/551 544/680/553
f 551/503/435 555/881/558 549/681/549
f 549/681/549 555/881/558 554/682/554
f 554/682/554 553/882/561 547/684/555
f 547/685/555 553/694/561 552/686/556
f 546/678/551 552/686/556 550/687/557
f 557/504/436 561/689/559 555/688/558
f 561/689/559 560/883/564 554/690/554
f 554/690/554 560/883/564 559/691/560
f 559/693/560 558/695/562 552/686/556
f 558/695/562 556/703/568 550/687/557
f 563/505/437 567/697/563 561/696/559
f 567/697/563 566/884/570 560/698/564
f 560/698/564 566/884/570 565/699/565
f 559/693/560 565/710/565 564/701/566
f 558/695/562 564/701/566 562/702/567
f 569/506/438 573/885/573 567/704/563
f 567/704/563 573/885/573 572/705/569
f 566/706/570 572/705/569 571/707/571
f 571/709/571 570/711/572 564/701/566
f 570/711/572 568/718/577 562/702/567
f 575/507/439 579/713/574 573/712/573
f 579/713/574 578/715/575 572/714/569
f 578/715/575 577/886/580 571/716/571
f 571/709/571 577/725/580 576/717/576
f 576/717/576 574/727/583 568/718/577
f 581/508/440 585/720/578 579/719/574
f 585/720/578 584/722/579 578/721/575
f 584/722/579 583/887/581 577/723/580
f 583/724/581 582/726/582 576/717/576
f 582/726/582 580/735/588 574/727/583
f 581/508/440 587/509/441 591/728/584
f 591/728/584 590/731/585 584/730/579
f 590/731/585 589/888/591 583/732/581
f 583/724/581 589/742/591 588/733/586
f 582/726/582 588/733/586 586/734/587
f 587/509/441 593/510/442 597/736/589
f 597/736/589 596/739/590 590/738/585
f 596/739/590 595/889/592 589/740/591
f 595/741/592 594/743/593 588/733/586
f 594/743/593 592/750/597 586/734/587
f 599/511/443 603/890/598 597/744/589
f 597/744/589 603/890/598 602/745/594
f 602/745/594 601/891/595 595/747/592
f 601/748/595 600/756/601 594/743/593
f 594/743/593 600/756/601 598/749/596
f 605/480/412 609/892/603 603/751/598
f 603/751/598 609/892/603 608/752/599
f 608/752/599 607/893/600 601/754/595
f 607/755/600 606/757/602 600/756/601
f 606/757/602 604/763/604 598/749/596
f 419/482/414 423/759/445 609/758/603
f 423/759/445 422/761/447 608/760/599
f 422/761/447 421/894/449 607/762/600
f 421/518/449 420/520/451 606/757/602
f 606/757/602 420/520/451 418/522/453
